train lr0.0010000000474974513 decay: 0.0
Validating  acc: 0.08571428571428572 p: 0.75 r: 0.08571428571428572 f1: 0.15384615384615383
Testing  acc: 0.0423728813559322 p: 0.7142857142857143 r: 0.0423728813559322 f1: 0.08

train lr0.0010000000474974513 decay: 0.0
Validating  acc: 0.6095238095238096 p: 0.7441860465116279 r: 0.6095238095238096 f1: 0.6701570680628273
Testing  acc: 0.576271186440678 p: 0.7311827956989247 r: 0.576271186440678 f1: 0.6445497630331753

train lr0.0010000000474974513 decay: 0.0
Validating  acc: 0.7333333333333333 p: 0.7 r: 0.7333333333333333 f1: 0.7162790697674419
Testing  acc: 0.711864406779661 p: 0.6614173228346457 r: 0.711864406779661 f1: 0.6857142857142857

train lr0.0010000000474974513 decay: 0.0
Validating  acc: 0.7904761904761904 p: 0.6194029850746269 r: 0.7904761904761904 f1: 0.694560669456067
Testing  acc: 0.7627118644067796 p: 0.6338028169014085 r: 0.7627118644067796 f1: 0.6923076923076923

train lr0.0010000000474974513 decay: 0.0
Validating  acc: 0.8095238095238095 p: 0.6343283582089553 r: 0.8095238095238095 f1: 0.7112970711297073
Testing  acc: 0.7542372881355932 p: 0.6054421768707483 r: 0.7542372881355932 f1: 0.6716981132075472

train lr0.0010000000474974513 decay: 0.0
Validating  acc: 0.8380952380952381 p: 0.5945945945945946 r: 0.8380952380952381 f1: 0.6956521739130435
Testing  acc: 0.8135593220338984 p: 0.5853658536585366 r: 0.8135593220338984 f1: 0.6808510638297872

train lr0.0010000000474974513 decay: 0.0
Validating  acc: 0.819047619047619 p: 0.6142857142857143 r: 0.819047619047619 f1: 0.7020408163265306
Testing  acc: 0.788135593220339 p: 0.6118421052631579 r: 0.788135593220339 f1: 0.6888888888888889

train lr0.0010000000474974513 decay: 0.0
Validating  acc: 0.8285714285714286 p: 0.6258992805755396 r: 0.8285714285714286 f1: 0.7131147540983607
Testing  acc: 0.7966101694915254 p: 0.6025641025641025 r: 0.7966101694915254 f1: 0.6861313868613139

train lr0.0010000000474974513 decay: 0.0
Validating  acc: 0.8476190476190476 p: 0.559748427672956 r: 0.8476190476190476 f1: 0.6742424242424242
Testing  acc: 0.8220338983050848 p: 0.5672514619883041 r: 0.8220338983050848 f1: 0.671280276816609

train lr0.0010000000474974513 decay: 0.0
Validating  acc: 0.7904761904761904 p: 0.6335877862595419 r: 0.7904761904761904 f1: 0.7033898305084745
Testing  acc: 0.7542372881355932 p: 0.6402877697841727 r: 0.7542372881355932 f1: 0.6926070038910506

train lr0.0010000000474974513 decay: 0.0
Validating  acc: 0.780952380952381 p: 0.6212121212121212 r: 0.780952380952381 f1: 0.6919831223628692
Testing  acc: 0.7542372881355932 p: 0.6267605633802817 r: 0.7542372881355932 f1: 0.6846153846153846

train lr0.0010000000474974513 decay: 0.0
Validating  acc: 0.7619047619047619 p: 0.6153846153846154 r: 0.7619047619047619 f1: 0.6808510638297872
Testing  acc: 0.7542372881355932 p: 0.6544117647058824 r: 0.7542372881355932 f1: 0.7007874015748031

train lr0.0010000000474974513 decay: 0.0
Validating  acc: 0.7523809523809524 p: 0.6124031007751938 r: 0.7523809523809524 f1: 0.6752136752136751
Testing  acc: 0.7288135593220338 p: 0.6466165413533834 r: 0.7288135593220338 f1: 0.6852589641434262

train lr0.0010000000474974513 decay: 0.0
Validating  acc: 0.7523809523809524 p: 0.632 r: 0.7523809523809524 f1: 0.6869565217391305
Testing  acc: 0.7372881355932204 p: 0.6444444444444445 r: 0.7372881355932204 f1: 0.6877470355731224

train lr0.0010000000474974513 decay: 0.0
Validating  acc: 0.819047619047619 p: 0.581081081081081 r: 0.819047619047619 f1: 0.6798418972332015
Testing  acc: 0.7796610169491526 p: 0.5935483870967742 r: 0.7796610169491526 f1: 0.673992673992674

train lr0.0010000000474974513 decay: 0.0
Validating  acc: 0.7714285714285715 p: 0.6377952755905512 r: 0.7714285714285715 f1: 0.6982758620689654
Testing  acc: 0.7542372881355932 p: 0.6357142857142857 r: 0.7542372881355932 f1: 0.6899224806201549

train lr0.0010000000474974513 decay: 0.0
Validating  acc: 0.7428571428571429 p: 0.65 r: 0.7428571428571429 f1: 0.6933333333333334
Testing  acc: 0.7288135593220338 p: 0.671875 r: 0.7288135593220338 f1: 0.6991869918699187

train lr0.0010000000474974513 decay: 0.0
Validating  acc: 0.6952380952380952 p: 0.7087378640776699 r: 0.6952380952380952 f1: 0.701923076923077
Testing  acc: 0.6610169491525424 p: 0.6842105263157895 r: 0.6610169491525424 f1: 0.6724137931034484

train lr0.0010000000474974513 decay: 0.0
Validating  acc: 0.7238095238095238 p: 0.6785714285714286 r: 0.7238095238095238 f1: 0.7004608294930876
Testing  acc: 0.711864406779661 p: 0.6774193548387096 r: 0.711864406779661 f1: 0.6942148760330579

train lr0.0010000000474974513 decay: 0.0
Validating  acc: 0.7142857142857143 p: 0.6944444444444444 r: 0.7142857142857143 f1: 0.7042253521126761
Testing  acc: 0.6694915254237288 p: 0.7053571428571429 r: 0.6694915254237288 f1: 0.6869565217391305

train lr0.0010000000474974513 decay: 0.0
Validating  acc: 0.6666666666666666 p: 0.7368421052631579 r: 0.6666666666666666 f1: 0.7
Testing  acc: 0.6271186440677966 p: 0.7047619047619048 r: 0.6271186440677966 f1: 0.6636771300448431

train lr0.0010000000474974513 decay: 0.0
Validating  acc: 0.780952380952381 p: 0.6212121212121212 r: 0.780952380952381 f1: 0.6919831223628692
Testing  acc: 0.7627118644067796 p: 0.6617647058823529 r: 0.7627118644067796 f1: 0.7086614173228345

train lr0.0010000000474974513 decay: 0.0
Validating  acc: 0.7333333333333333 p: 0.6936936936936937 r: 0.7333333333333333 f1: 0.7129629629629628
early stopping
