train lr0.0010000000474974513 decay: 0.0
Validating  acc: 0.44761904761904764 p: 0.6351351351351351 r: 0.44761904761904764 f1: 0.5251396648044693
new best score
Testing  acc: 0.4576271186440678 p: 0.6666666666666666 r: 0.4576271186440678 f1: 0.5427135678391959

train lr0.0010000000474974513 decay: 0.0
Validating  acc: 0.5333333333333333 p: 0.7 r: 0.5333333333333333 f1: 0.6054054054054053
new best score
Testing  acc: 0.5423728813559322 p: 0.6736842105263158 r: 0.5423728813559322 f1: 0.6009389671361502

train lr0.0010000000474974513 decay: 0.0
Validating  acc: 0.6 p: 0.7 r: 0.6 f1: 0.6461538461538462
new best score
Testing  acc: 0.5508474576271186 p: 0.6914893617021277 r: 0.5508474576271186 f1: 0.6132075471698113

train lr0.0010000000474974513 decay: 0.0
Validating  acc: 0.6857142857142857 p: 0.6857142857142857 r: 0.6857142857142857 f1: 0.6857142857142857
new best score
Testing  acc: 0.5932203389830508 p: 0.6862745098039216 r: 0.5932203389830508 f1: 0.6363636363636364

train lr0.0010000000474974513 decay: 0.0
Validating  acc: 0.6952380952380952 p: 0.6576576576576577 r: 0.6952380952380952 f1: 0.6759259259259259
Testing  acc: 0.6016949152542372 p: 0.6698113207547169 r: 0.6016949152542372 f1: 0.6339285714285714

train lr0.0010000000474974513 decay: 0.0
Validating  acc: 0.7428571428571429 p: 0.65 r: 0.7428571428571429 f1: 0.6933333333333334
new best score
Testing  acc: 0.6440677966101694 p: 0.6386554621848739 r: 0.6440677966101694 f1: 0.6413502109704641

train lr0.0010000000474974513 decay: 0.0
Validating  acc: 0.7142857142857143 p: 0.625 r: 0.7142857142857143 f1: 0.6666666666666666
Testing  acc: 0.6440677966101694 p: 0.6333333333333333 r: 0.6440677966101694 f1: 0.6386554621848739

train lr0.0010000000474974513 decay: 0.0
Validating  acc: 0.7619047619047619 p: 0.583941605839416 r: 0.7619047619047619 f1: 0.6611570247933884
Testing  acc: 0.6864406779661016 p: 0.6 r: 0.6864406779661016 f1: 0.6403162055335967

train lr0.0010000000474974513 decay: 0.0
Validating  acc: 0.7714285714285715 p: 0.6230769230769231 r: 0.7714285714285715 f1: 0.6893617021276597
Testing  acc: 0.6779661016949152 p: 0.6201550387596899 r: 0.6779661016949152 f1: 0.6477732793522266

train lr0.0010000000474974513 decay: 0.0
Validating  acc: 0.780952380952381 p: 0.5734265734265734 r: 0.780952380952381 f1: 0.6612903225806452
Testing  acc: 0.6949152542372882 p: 0.5815602836879432 r: 0.6949152542372882 f1: 0.6332046332046332

train lr0.0010000000474974513 decay: 0.0
Validating  acc: 0.8666666666666667 p: 0.4789473684210526 r: 0.8666666666666667 f1: 0.6169491525423729
Testing  acc: 0.7796610169491526 p: 0.5287356321839081 r: 0.7796610169491526 f1: 0.6301369863013698

train lr0.0010000000474974513 decay: 0.0
Validating  acc: 0.8476190476190476 p: 0.4517766497461929 r: 0.8476190476190476 f1: 0.5894039735099338
early stopping
