train lr0.0010000000474974513 decay: 0.0
Validating  acc: 0.5339506172839507 p: 0.5356037151702786 r: 0.5339506172839507 f1: 0.5347758887171562
new best score
Testing  acc: 0.5504322766570605 p: 0.5876923076923077 r: 0.5504322766570605 f1: 0.5684523809523809

train lr0.0010000000474974513 decay: 0.0
Validating  acc: 0.49691358024691357 p: 0.6822033898305084 r: 0.49691358024691357 f1: 0.575
new best score
Testing  acc: 0.5273775216138329 p: 0.7204724409448819 r: 0.5273775216138329 f1: 0.6089850249584027

train lr0.0010000000474974513 decay: 0.0
Validating  acc: 0.6759259259259259 p: 0.7849462365591398 r: 0.6759259259259259 f1: 0.7263681592039802
new best score
Testing  acc: 0.7031700288184438 p: 0.8187919463087249 r: 0.7031700288184438 f1: 0.7565891472868217

train lr0.0010000000474974513 decay: 0.0
Validating  acc: 0.6882716049382716 p: 0.8109090909090909 r: 0.6882716049382716 f1: 0.7445742904841403
new best score
Testing  acc: 0.7002881844380403 p: 0.84375 r: 0.7002881844380403 f1: 0.7653543307086613

train lr0.0010000000474974513 decay: 0.0
Validating  acc: 0.7407407407407407 p: 0.7792207792207793 r: 0.7407407407407407 f1: 0.7594936708860759
new best score
Testing  acc: 0.7406340057636888 p: 0.8132911392405063 r: 0.7406340057636888 f1: 0.77526395173454

train lr0.0010000000474974513 decay: 0.0
Validating  acc: 0.7037037037037037 p: 0.8172043010752689 r: 0.7037037037037037 f1: 0.7562189054726368
Testing  acc: 0.7204610951008645 p: 0.8591065292096219 r: 0.7204610951008645 f1: 0.7836990595611285

train lr0.0010000000474974513 decay: 0.0
Validating  acc: 0.7283950617283951 p: 0.7946127946127947 r: 0.7283950617283951 f1: 0.7600644122383253
new best score
Testing  acc: 0.7348703170028819 p: 0.8360655737704918 r: 0.7348703170028819 f1: 0.7822085889570553

train lr0.0010000000474974513 decay: 0.0
Validating  acc: 0.7129629629629629 p: 0.8048780487804879 r: 0.7129629629629629 f1: 0.7561374795417348
Testing  acc: 0.7262247838616714 p: 0.842809364548495 r: 0.7262247838616714 f1: 0.7801857585139319

train lr0.0010000000474974513 decay: 0.0
Validating  acc: 0.7561728395061729 p: 0.7827476038338658 r: 0.7561728395061729 f1: 0.7692307692307693
new best score
Testing  acc: 0.7406340057636888 p: 0.8263665594855305 r: 0.7406340057636888 f1: 0.7811550151975685

train lr0.0010000000474974513 decay: 0.0
Validating  acc: 0.7932098765432098 p: 0.7099447513812155 r: 0.7932098765432098 f1: 0.7492711370262392
Testing  acc: 0.7867435158501441 p: 0.7844827586206896 r: 0.7867435158501441 f1: 0.7856115107913668

train lr0.0010000000474974513 decay: 0.0
Validating  acc: 0.7438271604938271 p: 0.7799352750809061 r: 0.7438271604938271 f1: 0.7614533965244865
Testing  acc: 0.7348703170028819 p: 0.8252427184466019 r: 0.7348703170028819 f1: 0.7774390243902439

train lr0.0010000000474974513 decay: 0.0
Validating  acc: 0.7098765432098766 p: 0.8273381294964028 r: 0.7098765432098766 f1: 0.7641196013289037
Testing  acc: 0.7204610951008645 p: 0.8503401360544217 r: 0.7204610951008645 f1: 0.7800312012480498

train lr0.0010000000474974513 decay: 0.0
Validating  acc: 0.7314814814814815 p: 0.7926421404682275 r: 0.7314814814814815 f1: 0.7608346709470305
Testing  acc: 0.7319884726224783 p: 0.8355263157894737 r: 0.7319884726224783 f1: 0.7803379416282642

train lr0.0010000000474974513 decay: 0.0
Validating  acc: 0.7191358024691358 p: 0.7871621621621622 r: 0.7191358024691358 f1: 0.7516129032258064
early stopping
