train lr0.0010000000474974513 decay: 0.0
Validating  acc: 0.18209876543209877 p: 0.5673076923076923 r: 0.18209876543209877 f1: 0.2757009345794392
new best score!
Testing  acc: 0.2132564841498559 p: 0.6115702479338843 r: 0.2132564841498559 f1: 0.3162393162393162

train lr0.0010000000474974513 decay: 0.0
Validating  acc: 0.17901234567901234 p: 0.5979381443298969 r: 0.17901234567901234 f1: 0.2755344418052256
Testing  acc: 0.20461095100864554 p: 0.6396396396396397 r: 0.20461095100864554 f1: 0.31004366812227074

train lr0.0010000000474974513 decay: 0.0
Validating  acc: 0.17592592592592593 p: 0.6063829787234043 r: 0.17592592592592593 f1: 0.27272727272727276
Testing  acc: 0.1988472622478386 p: 0.6448598130841121 r: 0.1988472622478386 f1: 0.3039647577092511

train lr0.0010000000474974513 decay: 0.0
Validating  acc: 0.17592592592592593 p: 0.6195652173913043 r: 0.17592592592592593 f1: 0.27403846153846156
Testing  acc: 0.21037463976945245 p: 0.6886792452830188 r: 0.21037463976945245 f1: 0.32229580573951433

train lr0.0010000000474974513 decay: 0.0
Validating  acc: 0.17592592592592593 p: 0.5876288659793815 r: 0.17592592592592593 f1: 0.27078384798099764
Testing  acc: 0.21037463976945245 p: 0.6759259259259259 r: 0.21037463976945245 f1: 0.32087912087912085

train lr0.0010000000474974513 decay: 0.0
Validating  acc: 0.17592592592592593 p: 0.57 r: 0.17592592592592593 f1: 0.2688679245283019
Testing  acc: 0.2132564841498559 p: 0.6607142857142857 r: 0.2132564841498559 f1: 0.3224400871459695

train lr0.0010000000474974513 decay: 0.0
Validating  acc: 0.17592592592592593 p: 0.5757575757575758 r: 0.17592592592592593 f1: 0.2695035460992908
early stopping
