train lr0.0010000000474974513 decay: 0.0
Validating  acc: 0.3230240549828179 p: 0.4585365853658537 r: 0.3230240549828179 f1: 0.3790322580645161
new best score!
Testing  acc: 0.42857142857142855 p: 0.46905537459283386 r: 0.42857142857142855 f1: 0.44790046656298593

train lr0.0010000000474974513 decay: 0.0
Validating  acc: 0.28865979381443296 p: 0.4745762711864407 r: 0.28865979381443296 f1: 0.358974358974359
Testing  acc: 0.37797619047619047 p: 0.4828897338403042 r: 0.37797619047619047 f1: 0.4240400667779633

train lr0.0010000000474974513 decay: 0.0
Validating  acc: 0.26804123711340205 p: 0.5131578947368421 r: 0.26804123711340205 f1: 0.35214446952595935
Testing  acc: 0.35119047619047616 p: 0.48760330578512395 r: 0.35119047619047616 f1: 0.4083044982698961

train lr0.0010000000474974513 decay: 0.0
Validating  acc: 0.25773195876288657 p: 0.5208333333333334 r: 0.25773195876288657 f1: 0.3448275862068965
Testing  acc: 0.34523809523809523 p: 0.5043478260869565 r: 0.34523809523809523 f1: 0.4098939929328622

train lr0.0010000000474974513 decay: 0.0
Validating  acc: 0.2508591065292096 p: 0.5069444444444444 r: 0.2508591065292096 f1: 0.33563218390804594
Testing  acc: 0.34226190476190477 p: 0.5021834061135371 r: 0.34226190476190477 f1: 0.4070796460176991

train lr0.0010000000474974513 decay: 0.0
Validating  acc: 0.2542955326460481 p: 0.5211267605633803 r: 0.2542955326460481 f1: 0.34180138568129326
Testing  acc: 0.34226190476190477 p: 0.5180180180180181 r: 0.34226190476190477 f1: 0.41218637992831547

train lr0.0010000000474974513 decay: 0.0
Validating  acc: 0.25773195876288657 p: 0.5319148936170213 r: 0.25773195876288657 f1: 0.3472222222222222
early stopping
