train lr0.0010000000475 decay: 0.0
Validating  acc: 0.637931034483 p: 0.880952380952 r: 0.637931034483 f1: 0.74
Testing  acc: 0.554166666667 p: 0.858064516129 r: 0.554166666667 f1: 0.673417721519

train lr0.0010000000475 decay: 0.0
Validating  acc: 0.715517241379 p: 0.864583333333 r: 0.715517241379 f1: 0.783018867925
Testing  acc: 0.654166666667 p: 0.821989528796 r: 0.654166666667 f1: 0.728538283063

train lr0.0010000000475 decay: 0.0
Validating  acc: 0.737068965517 p: 0.830097087379 r: 0.737068965517 f1: 0.780821917808
Testing  acc: 0.725 p: 0.816901408451 r: 0.725 f1: 0.76821192053

train lr0.0010000000475 decay: 0.0
Validating  acc: 0.685344827586 p: 0.878453038674 r: 0.685344827586 f1: 0.769975786925
Testing  acc: 0.616666666667 p: 0.850574712644 r: 0.616666666667 f1: 0.714975845411

train lr0.0010000000475 decay: 0.0
Validating  acc: 0.637931034483 p: 0.913580246914 r: 0.637931034483 f1: 0.751269035533
early stopping
