train lr0.0010000000475 decay: 0.0
Validating  acc: 0.76724137931 p: 0.87684729064 r: 0.76724137931 f1: 0.818390804598
new best score
Testing  acc: 0.7625 p: 0.86320754717 r: 0.7625 f1: 0.809734513274

train lr0.0010000000475 decay: 0.0
Validating  acc: 0.771551724138 p: 0.886138613861 r: 0.771551724138 f1: 0.824884792627
new best score
Testing  acc: 0.791666666667 p: 0.859728506787 r: 0.791666666667 f1: 0.824295010846

train lr0.0010000000475 decay: 0.0
Validating  acc: 0.810344827586 p: 0.87037037037 r: 0.810344827586 f1: 0.839285714286
new best score
Testing  acc: 0.808333333333 p: 0.862222222222 r: 0.808333333333 f1: 0.834408602151

train lr0.0010000000475 decay: 0.0
Validating  acc: 0.741379310345 p: 0.895833333333 r: 0.741379310345 f1: 0.811320754717
Testing  acc: 0.716666666667 p: 0.895833333333 r: 0.716666666667 f1: 0.796296296296

train lr0.0010000000475 decay: 0.0
Validating  acc: 0.73275862069 p: 0.899470899471 r: 0.73275862069 f1: 0.807600950119
Testing  acc: 0.7125 p: 0.895287958115 r: 0.7125 f1: 0.793503480278

train lr0.0010000000475 decay: 0.0
Validating  acc: 0.620689655172 p: 0.929032258065 r: 0.620689655172 f1: 0.744186046512
Testing  acc: 0.595833333333 p: 0.916666666667 r: 0.595833333333 f1: 0.722222222222

train lr0.0010000000475 decay: 0.0
Validating  acc: 0.698275862069 p: 0.905027932961 r: 0.698275862069 f1: 0.788321167883
Testing  acc: 0.629166666667 p: 0.883040935673 r: 0.629166666667 f1: 0.734793187348

train lr0.0010000000475 decay: 0.0
Validating  acc: 0.758620689655 p: 0.893401015228 r: 0.758620689655 f1: 0.820512820513
early stopping
