train lr0.0010000000475 decay: 0.0
Validating  acc: 0.848765432099 p: 0.833333333333 r: 0.848765432099 f1: 0.840978593272
new best score
Testing  acc: 0.850144092219 p: 0.857558139535 r: 0.850144092219 f1: 0.853835021708

train lr0.0010000000475 decay: 0.0
Validating  acc: 0.873456790123 p: 0.870769230769 r: 0.873456790123 f1: 0.872110939908
new best score
Testing  acc: 0.864553314121 p: 0.879765395894 r: 0.864553314121 f1: 0.872093023256

train lr0.0010000000475 decay: 0.0
Validating  acc: 0.851851851852 p: 0.873417721519 r: 0.851851851852 f1: 0.8625
Testing  acc: 0.861671469741 p: 0.897897897898 r: 0.861671469741 f1: 0.879411764706

train lr0.0010000000475 decay: 0.0
Validating  acc: 0.833333333333 p: 0.891089108911 r: 0.833333333333 f1: 0.861244019139
Testing  acc: 0.85590778098 p: 0.908256880734 r: 0.85590778098 f1: 0.881305637982

train lr0.0010000000475 decay: 0.0
Validating  acc: 0.891975308642 p: 0.845029239766 r: 0.891975308642 f1: 0.867867867868
Testing  acc: 0.910662824207 p: 0.875346260388 r: 0.910662824207 f1: 0.892655367232

train lr0.0010000000475 decay: 0.0
Validating  acc: 0.882716049383 p: 0.848664688427 r: 0.882716049383 f1: 0.865355521936
Testing  acc: 0.902017291066 p: 0.871866295265 r: 0.902017291066 f1: 0.886685552408

train lr0.0010000000475 decay: 0.0
Validating  acc: 0.882716049383 p: 0.838709677419 r: 0.882716049383 f1: 0.86015037594
early stopping
