train lr0.0010000000475 decay: 0.0
Validating  acc: 0.469135802469 p: 0.658008658009 r: 0.469135802469 f1: 0.547747747748
new best score
Testing  acc: 0.495677233429 p: 0.690763052209 r: 0.495677233429 f1: 0.577181208054

train lr0.0010000000475 decay: 0.0
Validating  acc: 0.401234567901 p: 0.684210526316 r: 0.401234567901 f1: 0.505836575875
Testing  acc: 0.435158501441 p: 0.705607476636 r: 0.435158501441 f1: 0.538324420677

train lr0.0010000000475 decay: 0.0
Validating  acc: 0.401234567901 p: 0.695187165775 r: 0.401234567901 f1: 0.508806262231
Testing  acc: 0.4265129683 p: 0.711538461538 r: 0.4265129683 f1: 0.533333333333

train lr0.0010000000475 decay: 0.0
Validating  acc: 0.41049382716 p: 0.703703703704 r: 0.41049382716 f1: 0.518518518519
Testing  acc: 0.420749279539 p: 0.71921182266 r: 0.420749279539 f1: 0.530909090909

train lr0.0010000000475 decay: 0.0
Validating  acc: 0.425925925926 p: 0.69 r: 0.425925925926 f1: 0.526717557252
Testing  acc: 0.435158501441 p: 0.725961538462 r: 0.435158501441 f1: 0.544144144144

train lr0.0010000000475 decay: 0.0
Validating  acc: 0.416666666667 p: 0.699481865285 r: 0.416666666667 f1: 0.522243713733
early stopping
