Validating f1:0
new best score!
Testing f1:0

Validating f1:0
new best score!
Testing f1:0

Validating f1:0
new best score!
Testing f1:0.005917159763313609

Validating f1:0.2424242424242424
new best score!
Testing f1:0.2648401826484018

Validating f1:0.37905236907730677
new best score!
Testing f1:0.44621513944223107

Validating f1:0.49180327868852464
new best score!
Testing f1:0.5539033457249071

Validating f1:0.5454545454545453
new best score!
Testing f1:0.599640933572711

Validating f1:0.6200873362445414
new best score!
Testing f1:0.6480836236933798

Validating f1:0.6479481641468682
new best score!
Testing f1:0.6903553299492386

Validating f1:0.6875
new best score!
Testing f1:0.7257799671592775

Validating f1:0.6970954356846473
new best score!
Testing f1:0.7540983606557377

Validating f1:0.7119341563786008
new best score!
Testing f1:0.7662337662337663

