train lr0.0010000000475 decay: 0.0
Validating  acc: 0.0101351351351 p: 1.0 r: 0.0101351351351 f1: 0.0200668896321
new best score
Testing  acc: 0.0148148148148 p: 0.8 r: 0.0148148148148 f1: 0.0290909090909

train lr0.0010000000475 decay: 0.0
Validating  acc: 0.0101351351351 p: 1.0 r: 0.0101351351351 f1: 0.0200668896321
new best score
Testing  acc: 0.0148148148148 p: 0.8 r: 0.0148148148148 f1: 0.0290909090909

train lr0.0010000000475 decay: 0.0
Validating  acc: 0.0101351351351 p: 1.0 r: 0.0101351351351 f1: 0.0200668896321
new best score
Testing  acc: 0.0148148148148 p: 0.8 r: 0.0148148148148 f1: 0.0290909090909

train lr0.0010000000475 decay: 0.0
Validating  acc: 0.0101351351351 p: 1.0 r: 0.0101351351351 f1: 0.0200668896321
new best score
Testing  acc: 0.0148148148148 p: 0.8 r: 0.0148148148148 f1: 0.0290909090909

train lr0.0010000000475 decay: 0.0
Validating  acc: 0.0135135135135 p: 0.8 r: 0.0135135135135 f1: 0.0265780730897
new best score
Testing  acc: 0.0148148148148 p: 0.8 r: 0.0148148148148 f1: 0.0290909090909

train lr0.0010000000475 decay: 0.0
Validating  acc: 0.0202702702703 p: 0.857142857143 r: 0.0202702702703 f1: 0.039603960396
new best score
Testing  acc: 0.0222222222222 p: 0.857142857143 r: 0.0222222222222 f1: 0.043321299639

train lr0.0010000000475 decay: 0.0
Validating  acc: 0.0304054054054 p: 0.818181818182 r: 0.0304054054054 f1: 0.0586319218241
new best score
Testing  acc: 0.037037037037 p: 0.833333333333 r: 0.037037037037 f1: 0.0709219858156

train lr0.0010000000475 decay: 0.0
Validating  acc: 0.0371621621622 p: 0.785714285714 r: 0.0371621621622 f1: 0.0709677419355
new best score
Testing  acc: 0.0592592592593 p: 0.8 r: 0.0592592592593 f1: 0.110344827586

train lr0.0010000000475 decay: 0.0
Validating  acc: 0.0540540540541 p: 0.727272727273 r: 0.0540540540541 f1: 0.100628930818
new best score
Testing  acc: 0.0777777777778 p: 0.807692307692 r: 0.0777777777778 f1: 0.141891891892

train lr0.0010000000475 decay: 0.0
Validating  acc: 0.0641891891892 p: 0.76 r: 0.0641891891892 f1: 0.118380062305
new best score
Testing  acc: 0.0962962962963 p: 0.838709677419 r: 0.0962962962963 f1: 0.172757475083

train lr0.0010000000475 decay: 0.0
Validating  acc: 0.0912162162162 p: 0.771428571429 r: 0.0912162162162 f1: 0.163141993958
new best score
Testing  acc: 0.111111111111 p: 0.810810810811 r: 0.111111111111 f1: 0.195439739414

train lr0.0010000000475 decay: 0.0
Validating  acc: 0.0945945945946 p: 0.777777777778 r: 0.0945945945946 f1: 0.168674698795
new best score
Testing  acc: 0.12962962963 p: 0.833333333333 r: 0.12962962963 f1: 0.224358974359

train lr0.0010000000475 decay: 0.0
Validating  acc: 0.162162162162 p: 0.716417910448 r: 0.162162162162 f1: 0.264462809917
new best score
Testing  acc: 0.166666666667 p: 0.75 r: 0.166666666667 f1: 0.272727272727

train lr0.0010000000475 decay: 0.0
Validating  acc: 0.219594594595 p: 0.643564356436 r: 0.219594594595 f1: 0.327455919395
new best score
Testing  acc: 0.214814814815 p: 0.690476190476 r: 0.214814814815 f1: 0.327683615819

train lr0.0010000000475 decay: 0.0
Validating  acc: 0.233108108108 p: 0.676470588235 r: 0.233108108108 f1: 0.346733668342
new best score
Testing  acc: 0.237037037037 p: 0.744186046512 r: 0.237037037037 f1: 0.359550561798

train lr0.0010000000475 decay: 0.0
Validating  acc: 0.27027027027 p: 0.645161290323 r: 0.27027027027 f1: 0.380952380952
new best score
Testing  acc: 0.311111111111 p: 0.688524590164 r: 0.311111111111 f1: 0.428571428571

train lr0.0010000000475 decay: 0.0
Validating  acc: 0.327702702703 p: 0.651006711409 r: 0.327702702703 f1: 0.43595505618
new best score
Testing  acc: 0.337037037037 p: 0.689393939394 r: 0.337037037037 f1: 0.452736318408

train lr0.0010000000475 decay: 0.0
Validating  acc: 0.358108108108 p: 0.679487179487 r: 0.358108108108 f1: 0.469026548673
new best score
Testing  acc: 0.396296296296 p: 0.722972972973 r: 0.396296296296 f1: 0.511961722488

train lr0.0010000000475 decay: 0.0
Validating  acc: 0.408783783784 p: 0.695402298851 r: 0.408783783784 f1: 0.514893617021
new best score
Testing  acc: 0.448148148148 p: 0.742331288344 r: 0.448148148148 f1: 0.558891454965

train lr0.0010000000475 decay: 0.0
Validating  acc: 0.422297297297 p: 0.710227272727 r: 0.422297297297 f1: 0.529661016949
new best score
Testing  acc: 0.47037037037 p: 0.779141104294 r: 0.47037037037 f1: 0.586605080831

train lr0.0010000000475 decay: 0.0
Validating  acc: 0.408783783784 p: 0.737804878049 r: 0.408783783784 f1: 0.526086956522
Testing  acc: 0.451851851852 p: 0.787096774194 r: 0.451851851852 f1: 0.574117647059

train lr0.0010000000475 decay: 0.0
Validating  acc: 0.442567567568 p: 0.73595505618 r: 0.442567567568 f1: 0.552742616034
new best score
Testing  acc: 0.525925925926 p: 0.78453038674 r: 0.525925925926 f1: 0.629711751663

train lr0.0010000000475 decay: 0.0
Validating  acc: 0.47972972973 p: 0.739583333333 r: 0.47972972973 f1: 0.581967213115
new best score
Testing  acc: 0.551851851852 p: 0.784210526316 r: 0.551851851852 f1: 0.647826086957

train lr0.0010000000475 decay: 0.0
Validating  acc: 0.510135135135 p: 0.743842364532 r: 0.510135135135 f1: 0.605210420842
new best score
Testing  acc: 0.562962962963 p: 0.783505154639 r: 0.562962962963 f1: 0.655172413793

train lr0.0010000000475 decay: 0.0
Validating  acc: 0.503378378378 p: 0.748743718593 r: 0.503378378378 f1: 0.60202020202
Testing  acc: 0.57037037037 p: 0.789743589744 r: 0.57037037037 f1: 0.662365591398

train lr0.0010000000475 decay: 0.0
Validating  acc: 0.523648648649 p: 0.752427184466 r: 0.523648648649 f1: 0.617529880478
new best score
Testing  acc: 0.574074074074 p: 0.790816326531 r: 0.574074074074 f1: 0.665236051502

train lr0.0010000000475 decay: 0.0
Validating  acc: 0.533783783784 p: 0.763285024155 r: 0.533783783784 f1: 0.628230616302
new best score
Testing  acc: 0.585185185185 p: 0.79797979798 r: 0.585185185185 f1: 0.675213675214

train lr0.0010000000475 decay: 0.0
Validating  acc: 0.584459459459 p: 0.758771929825 r: 0.584459459459 f1: 0.660305343511
new best score
Testing  acc: 0.611111111111 p: 0.75 r: 0.611111111111 f1: 0.673469387755

train lr0.0010000000475 decay: 0.0
Validating  acc: 0.567567567568 p: 0.781395348837 r: 0.567567567568 f1: 0.657534246575
Testing  acc: 0.607407407407 p: 0.780952380952 r: 0.607407407407 f1: 0.683333333333

train lr0.0010000000475 decay: 0.0
Validating  acc: 0.574324324324 p: 0.772727272727 r: 0.574324324324 f1: 0.658914728682
Testing  acc: 0.611111111111 p: 0.781990521327 r: 0.611111111111 f1: 0.686070686071

