train lr0.0010000000474974513 decay: 0.0
Validating  acc: 0.6857142857142857 p: 0.6605504587155964 r: 0.6857142857142857 f1: 0.6728971962616822
new best score
Testing  acc: 0.711864406779661 p: 0.65625 r: 0.711864406779661 f1: 0.6829268292682927

train lr0.0010000000474974513 decay: 0.0
Validating  acc: 0.7047619047619048 p: 0.6666666666666666 r: 0.7047619047619048 f1: 0.6851851851851851
new best score
Testing  acc: 0.711864406779661 p: 0.6363636363636364 r: 0.711864406779661 f1: 0.672

train lr0.0010000000474974513 decay: 0.0
Validating  acc: 0.7047619047619048 p: 0.6851851851851852 r: 0.7047619047619048 f1: 0.6948356807511737
new best score
Testing  acc: 0.6779661016949152 p: 0.6504065040650406 r: 0.6779661016949152 f1: 0.6639004149377593

train lr0.0010000000474974513 decay: 0.0
Validating  acc: 0.7047619047619048 p: 0.6915887850467289 r: 0.7047619047619048 f1: 0.6981132075471698
new best score
Testing  acc: 0.6610169491525424 p: 0.6610169491525424 r: 0.6610169491525424 f1: 0.6610169491525424

train lr0.0010000000474974513 decay: 0.0
Validating  acc: 0.7523809523809524 p: 0.7314814814814815 r: 0.7523809523809524 f1: 0.7417840375586856
new best score
Testing  acc: 0.652542372881356 p: 0.652542372881356 r: 0.652542372881356 f1: 0.652542372881356

train lr0.0010000000474974513 decay: 0.0
Validating  acc: 0.7142857142857143 p: 0.7211538461538461 r: 0.7142857142857143 f1: 0.7177033492822967
Testing  acc: 0.6440677966101694 p: 0.672566371681416 r: 0.6440677966101694 f1: 0.658008658008658

train lr0.0010000000474974513 decay: 0.0
Validating  acc: 0.6857142857142857 p: 0.6792452830188679 r: 0.6857142857142857 f1: 0.6824644549763033
Testing  acc: 0.6610169491525424 p: 0.6554621848739496 r: 0.6610169491525424 f1: 0.6582278481012659

train lr0.0010000000474974513 decay: 0.0
Validating  acc: 0.7047619047619048 p: 0.7184466019417476 r: 0.7047619047619048 f1: 0.7115384615384616
early stopping
