train lr0.0010000000475 decay: 0.0
Validating  acc: 0.814814814815 p: 0.785714285714 r: 0.814814814815 f1: 0.8
new best score
Testing  acc: 0.821325648415 p: 0.828488372093 r: 0.821325648415 f1: 0.82489146165

train lr0.0010000000475 decay: 0.0
Validating  acc: 0.848765432099 p: 0.801749271137 r: 0.848765432099 f1: 0.824587706147
new best score
Testing  acc: 0.847262247839 p: 0.84 r: 0.847262247839 f1: 0.843615494978

train lr0.0010000000475 decay: 0.0
Validating  acc: 0.861111111111 p: 0.811046511628 r: 0.861111111111 f1: 0.835329341317
new best score
Testing  acc: 0.861671469741 p: 0.830555555556 r: 0.861671469741 f1: 0.845827439887

train lr0.0010000000475 decay: 0.0
Validating  acc: 0.858024691358 p: 0.839879154079 r: 0.858024691358 f1: 0.848854961832
new best score
Testing  acc: 0.861671469741 p: 0.835195530726 r: 0.861671469741 f1: 0.848226950355

train lr0.0010000000475 decay: 0.0
Validating  acc: 0.873456790123 p: 0.834808259587 r: 0.873456790123 f1: 0.853695324284
new best score
Testing  acc: 0.870317002882 p: 0.831955922865 r: 0.870317002882 f1: 0.850704225352

train lr0.0010000000475 decay: 0.0
Validating  acc: 0.873456790123 p: 0.82991202346 r: 0.873456790123 f1: 0.851127819549
Testing  acc: 0.870317002882 p: 0.816216216216 r: 0.870317002882 f1: 0.84239888424

train lr0.0010000000475 decay: 0.0
Validating  acc: 0.858024691358 p: 0.83734939759 r: 0.858024691358 f1: 0.84756097561
Testing  acc: 0.864553314121 p: 0.847457627119 r: 0.864553314121 f1: 0.855920114123

train lr0.0010000000475 decay: 0.0
Validating  acc: 0.876543209877 p: 0.837758112094 r: 0.876543209877 f1: 0.856711915535
new best score
Testing  acc: 0.884726224784 p: 0.850415512465 r: 0.884726224784 f1: 0.867231638418

train lr0.0010000000475 decay: 0.0
Validating  acc: 0.864197530864 p: 0.838323353293 r: 0.864197530864 f1: 0.851063829787
Testing  acc: 0.878962536023 p: 0.856741573034 r: 0.878962536023 f1: 0.867709815078

train lr0.0010000000475 decay: 0.0
Validating  acc: 0.861111111111 p: 0.840361445783 r: 0.861111111111 f1: 0.850609756098
Testing  acc: 0.864553314121 p: 0.854700854701 r: 0.864553314121 f1: 0.859598853868

train lr0.0010000000475 decay: 0.0
Validating  acc: 0.858024691358 p: 0.832335329341 r: 0.858024691358 f1: 0.844984802432
Testing  acc: 0.853025936599 p: 0.853025936599 r: 0.853025936599 f1: 0.853025936599

train lr0.0010000000475 decay: 0.0
Validating  acc: 0.858024691358 p: 0.83734939759 r: 0.858024691358 f1: 0.84756097561
Testing  acc: 0.861671469741 p: 0.856733524355 r: 0.861671469741 f1: 0.859195402299

train lr0.0010000000475 decay: 0.0
Validating  acc: 0.842592592593 p: 0.858490566038 r: 0.842592592593 f1: 0.85046728972
early stopping
