train lr0.0010000000474974513 decay: 0.0
Validating  acc: 0.6952380952380952 p: 0.5251798561151079 r: 0.6952380952380952 f1: 0.5983606557377048
new best score
Testing  acc: 0.7457627118644068 p: 0.6330935251798561 r: 0.7457627118644068 f1: 0.6848249027237354

train lr0.0010000000474974513 decay: 0.0
Validating  acc: 0.6190476190476191 p: 0.6372549019607843 r: 0.6190476190476191 f1: 0.6280193236714976
new best score
Testing  acc: 0.7033898305084746 p: 0.6693548387096774 r: 0.7033898305084746 f1: 0.6859504132231404

train lr0.0010000000474974513 decay: 0.0
Validating  acc: 0.6476190476190476 p: 0.5964912280701754 r: 0.6476190476190476 f1: 0.6210045662100456
Testing  acc: 0.711864406779661 p: 0.6363636363636364 r: 0.711864406779661 f1: 0.672

train lr0.0010000000474974513 decay: 0.0
Validating  acc: 0.6476190476190476 p: 0.591304347826087 r: 0.6476190476190476 f1: 0.6181818181818182
Testing  acc: 0.711864406779661 p: 0.6461538461538462 r: 0.711864406779661 f1: 0.6774193548387097

train lr0.0010000000474974513 decay: 0.0
Validating  acc: 0.6285714285714286 p: 0.616822429906542 r: 0.6285714285714286 f1: 0.6226415094339623
Testing  acc: 0.6864406779661016 p: 0.6639344262295082 r: 0.6864406779661016 f1: 0.6749999999999999

train lr0.0010000000474974513 decay: 0.0
Validating  acc: 0.6285714285714286 p: 0.6055045871559633 r: 0.6285714285714286 f1: 0.6168224299065421
Testing  acc: 0.6864406779661016 p: 0.6639344262295082 r: 0.6864406779661016 f1: 0.6749999999999999

train lr0.0010000000474974513 decay: 0.0
Validating  acc: 0.6095238095238096 p: 0.6153846153846154 r: 0.6095238095238096 f1: 0.6124401913875599
Testing  acc: 0.652542372881356 p: 0.6754385964912281 r: 0.652542372881356 f1: 0.6637931034482758

train lr0.0010000000474974513 decay: 0.0
Validating  acc: 0.6 p: 0.6116504854368932 r: 0.6 f1: 0.6057692307692308
early stopping
