train lr0.0010000000475 decay: 0.0
Validating  acc: 0.51724137931 p: 0.805369127517 r: 0.51724137931 f1: 0.629921259843
new best score
Testing  acc: 0.458333333333 p: 0.718954248366 r: 0.458333333333 f1: 0.559796437659

train lr0.0010000000475 decay: 0.0
Validating  acc: 0.633620689655 p: 0.753846153846 r: 0.633620689655 f1: 0.688524590164
new best score
Testing  acc: 0.583333333333 p: 0.676328502415 r: 0.583333333333 f1: 0.626398210291

train lr0.0010000000475 decay: 0.0
Validating  acc: 0.711206896552 p: 0.723684210526 r: 0.711206896552 f1: 0.717391304348
new best score
Testing  acc: 0.6625 p: 0.636 r: 0.6625 f1: 0.648979591837

train lr0.0010000000475 decay: 0.0
Validating  acc: 0.706896551724 p: 0.738738738739 r: 0.706896551724 f1: 0.722466960352
new best score
Testing  acc: 0.666666666667 p: 0.658436213992 r: 0.666666666667 f1: 0.662525879917

train lr0.0010000000475 decay: 0.0
Validating  acc: 0.672413793103 p: 0.764705882353 r: 0.672413793103 f1: 0.715596330275
Testing  acc: 0.6375 p: 0.692307692308 r: 0.6375 f1: 0.663774403471

train lr0.0010000000475 decay: 0.0
Validating  acc: 0.693965517241 p: 0.735159817352 r: 0.693965517241 f1: 0.713968957871
Testing  acc: 0.641666666667 p: 0.672489082969 r: 0.641666666667 f1: 0.65671641791

train lr0.0010000000475 decay: 0.0
Validating  acc: 0.668103448276 p: 0.756097560976 r: 0.668103448276 f1: 0.70938215103
Testing  acc: 0.616666666667 p: 0.704761904762 r: 0.616666666667 f1: 0.657777777778

train lr0.0010000000475 decay: 0.0
Validating  acc: 0.64224137931 p: 0.772020725389 r: 0.64224137931 f1: 0.701176470588
Testing  acc: 0.595833333333 p: 0.704433497537 r: 0.595833333333 f1: 0.645598194131

train lr0.0010000000475 decay: 0.0
Validating  acc: 0.702586206897 p: 0.730941704036 r: 0.702586206897 f1: 0.716483516484
Testing  acc: 0.65 p: 0.672413793103 r: 0.65 f1: 0.661016949153

train lr0.0010000000475 decay: 0.0
Validating  acc: 0.73275862069 p: 0.651340996169 r: 0.73275862069 f1: 0.689655172414
Testing  acc: 0.695833333333 p: 0.609489051095 r: 0.695833333333 f1: 0.649805447471

train lr0.0010000000475 decay: 0.0
Validating  acc: 0.702586206897 p: 0.693617021277 r: 0.702586206897 f1: 0.698072805139
Testing  acc: 0.645833333333 p: 0.640495867769 r: 0.645833333333 f1: 0.643153526971

train lr0.0010000000475 decay: 0.0
Validating  acc: 0.73275862069 p: 0.62962962963 r: 0.73275862069 f1: 0.677290836653
early stopping
