train lr0.0010000000474974513 decay: 0.0
Validating  acc: 0.6219931271477663 p: 0.8743961352657005 r: 0.6219931271477663 f1: 0.7269076305220885
new best score
Testing  acc: 0.6845238095238095 p: 0.8487084870848709 r: 0.6845238095238095 f1: 0.757825370675453

train lr0.0010000000474974513 decay: 0.0
Validating  acc: 0.6529209621993127 p: 0.8636363636363636 r: 0.6529209621993127 f1: 0.7436399217221136
new best score
Testing  acc: 0.7351190476190477 p: 0.8487972508591065 r: 0.7351190476190477 f1: 0.787878787878788

train lr0.0010000000474974513 decay: 0.0
Validating  acc: 0.6769759450171822 p: 0.8914027149321267 r: 0.6769759450171822 f1: 0.76953125
new best score
Testing  acc: 0.7559523809523809 p: 0.8552188552188552 r: 0.7559523809523809 f1: 0.802527646129542

train lr0.0010000000474974513 decay: 0.0
Validating  acc: 0.7079037800687286 p: 0.869198312236287 r: 0.7079037800687286 f1: 0.7803030303030303
new best score
Testing  acc: 0.7738095238095238 p: 0.8524590163934426 r: 0.7738095238095238 f1: 0.8112324492979719

train lr0.0010000000474974513 decay: 0.0
Validating  acc: 0.7147766323024055 p: 0.8888888888888888 r: 0.7147766323024055 f1: 0.7923809523809523
new best score
Testing  acc: 0.8095238095238095 p: 0.8553459119496856 r: 0.8095238095238095 f1: 0.8318042813455658

train lr0.0010000000474974513 decay: 0.0
Validating  acc: 0.718213058419244 p: 0.8931623931623932 r: 0.718213058419244 f1: 0.7961904761904762
new best score
Testing  acc: 0.7946428571428571 p: 0.8725490196078431 r: 0.7946428571428571 f1: 0.8317757009345794

train lr0.0010000000474974513 decay: 0.0
Validating  acc: 0.7216494845360825 p: 0.9051724137931034 r: 0.7216494845360825 f1: 0.8030592734225621
new best score
Testing  acc: 0.8154761904761905 p: 0.8753993610223643 r: 0.8154761904761905 f1: 0.8443759630200308

train lr0.0010000000474974513 decay: 0.0
Validating  acc: 0.718213058419244 p: 0.9330357142857143 r: 0.718213058419244 f1: 0.8116504854368932
new best score
Testing  acc: 0.7827380952380952 p: 0.8708609271523179 r: 0.7827380952380952 f1: 0.8244514106583072

train lr0.0010000000474974513 decay: 0.0
Validating  acc: 0.711340206185567 p: 0.9324324324324325 r: 0.711340206185567 f1: 0.8070175438596491
Testing  acc: 0.7946428571428571 p: 0.89 r: 0.7946428571428571 f1: 0.839622641509434

train lr0.0010000000474974513 decay: 0.0
Validating  acc: 0.7010309278350515 p: 0.9315068493150684 r: 0.7010309278350515 f1: 0.7999999999999999
Testing  acc: 0.7797619047619048 p: 0.89419795221843 r: 0.7797619047619048 f1: 0.8330683624801273

train lr0.0010000000474974513 decay: 0.0
Validating  acc: 0.718213058419244 p: 0.9330357142857143 r: 0.718213058419244 f1: 0.8116504854368932
new best score
Testing  acc: 0.7797619047619048 p: 0.8646864686468647 r: 0.7797619047619048 f1: 0.8200312989045384

train lr0.0010000000474974513 decay: 0.0
Validating  acc: 0.697594501718213 p: 0.9441860465116279 r: 0.697594501718213 f1: 0.8023715415019762
Testing  acc: 0.7678571428571429 p: 0.8805460750853242 r: 0.7678571428571429 f1: 0.8203497615262321

train lr0.0010000000474974513 decay: 0.0
Validating  acc: 0.7216494845360825 p: 0.9170305676855895 r: 0.7216494845360825 f1: 0.8076923076923077
Testing  acc: 0.7678571428571429 p: 0.862876254180602 r: 0.7678571428571429 f1: 0.8125984251968504

train lr0.0010000000474974513 decay: 0.0
Validating  acc: 0.7353951890034365 p: 0.9224137931034483 r: 0.7353951890034365 f1: 0.8183556405353728
new best score
Testing  acc: 0.8035714285714286 p: 0.8653846153846154 r: 0.8035714285714286 f1: 0.8333333333333334

train lr0.0010000000474974513 decay: 0.0
Validating  acc: 0.738831615120275 p: 0.8884297520661157 r: 0.738831615120275 f1: 0.8067542213883678
Testing  acc: 0.8005952380952381 p: 0.864951768488746 r: 0.8005952380952381 f1: 0.8315301391035549

train lr0.0010000000474974513 decay: 0.0
Validating  acc: 0.7319587628865979 p: 0.9181034482758621 r: 0.7319587628865979 f1: 0.8145315487571702
Testing  acc: 0.8095238095238095 p: 0.8831168831168831 r: 0.8095238095238095 f1: 0.84472049689441

train lr0.0010000000474974513 decay: 0.0
Validating  acc: 0.7835051546391752 p: 0.8603773584905661 r: 0.7835051546391752 f1: 0.8201438848920863
new best score
Testing  acc: 0.8511904761904762 p: 0.8387096774193549 r: 0.8511904761904762 f1: 0.8449039881831609

train lr0.0010000000474974513 decay: 0.0
Validating  acc: 0.7285223367697594 p: 0.8796680497925311 r: 0.7285223367697594 f1: 0.7969924812030075
Testing  acc: 0.8125 p: 0.861198738170347 r: 0.8125 f1: 0.8361408882082696

train lr0.0010000000474974513 decay: 0.0
Validating  acc: 0.7525773195876289 p: 0.8938775510204081 r: 0.7525773195876289 f1: 0.8171641791044776
Testing  acc: 0.8303571428571429 p: 0.8584615384615385 r: 0.8303571428571429 f1: 0.8441754916792739

train lr0.0010000000474974513 decay: 0.0
Validating  acc: 0.7422680412371134 p: 0.907563025210084 r: 0.7422680412371134 f1: 0.8166351606805294
Testing  acc: 0.8244047619047619 p: 0.8575851393188855 r: 0.8244047619047619 f1: 0.8406676783004552

train lr0.0010000000474974513 decay: 0.0
Validating  acc: 0.7319587628865979 p: 0.891213389121339 r: 0.7319587628865979 f1: 0.8037735849056604
Testing  acc: 0.8125 p: 0.861198738170347 r: 0.8125 f1: 0.8361408882082696

train lr0.0010000000474974513 decay: 0.0
Validating  acc: 0.7766323024054983 p: 0.8560606060606061 r: 0.7766323024054983 f1: 0.8144144144144144
Testing  acc: 0.8422619047619048 p: 0.8397626112759644 r: 0.8422619047619048 f1: 0.8410104011887074

train lr0.0010000000474974513 decay: 0.0
Validating  acc: 0.7800687285223368 p: 0.8697318007662835 r: 0.7800687285223368 f1: 0.8224637681159419
new best score
Testing  acc: 0.8482142857142857 p: 0.8382352941176471 r: 0.8482142857142857 f1: 0.8431952662721893

train lr0.0010000000474974513 decay: 0.0
Validating  acc: 0.7663230240549829 p: 0.8415094339622642 r: 0.7663230240549829 f1: 0.8021582733812951
Testing  acc: 0.8452380952380952 p: 0.8304093567251462 r: 0.8452380952380952 f1: 0.8377581120943952

train lr0.0010000000474974513 decay: 0.0
Validating  acc: 0.7663230240549829 p: 0.8446969696969697 r: 0.7663230240549829 f1: 0.8036036036036037
Testing  acc: 0.8452380952380952 p: 0.8402366863905325 r: 0.8452380952380952 f1: 0.8427299703264095

train lr0.0010000000474974513 decay: 0.0
Validating  acc: 0.738831615120275 p: 0.9033613445378151 r: 0.738831615120275 f1: 0.8128544423440455
Testing  acc: 0.8363095238095238 p: 0.8699690402476781 r: 0.8363095238095238 f1: 0.8528072837632777

train lr0.0010000000474974513 decay: 0.0
Validating  acc: 0.7147766323024055 p: 0.896551724137931 r: 0.7147766323024055 f1: 0.7954110898661568
Testing  acc: 0.8184523809523809 p: 0.8647798742138365 r: 0.8184523809523809 f1: 0.8409785932721713

train lr0.0010000000474974513 decay: 0.0
Validating  acc: 0.7800687285223368 p: 0.822463768115942 r: 0.7800687285223368 f1: 0.8007054673721341
Testing  acc: 0.8571428571428571 p: 0.8347826086956521 r: 0.8571428571428571 f1: 0.8458149779735682

train lr0.0010000000474974513 decay: 0.0
Validating  acc: 0.7250859106529209 p: 0.9295154185022027 r: 0.7250859106529209 f1: 0.8146718146718147
Testing  acc: 0.8184523809523809 p: 0.8842443729903537 r: 0.8184523809523809 f1: 0.8500772797527048

train lr0.0010000000474974513 decay: 0.0
Validating  acc: 0.718213058419244 p: 0.8969957081545065 r: 0.718213058419244 f1: 0.7977099236641222
Testing  acc: 0.8125 p: 0.8722044728434505 r: 0.8125 f1: 0.8412942989214176

