train lr0.0010000000475 decay: 0.0
Validating  acc: 0.737068965517 p: 0.830097087379 r: 0.737068965517 f1: 0.780821917808
new best score
Testing  acc: 0.745833333333 p: 0.809954751131 r: 0.745833333333 f1: 0.776572668113

train lr0.0010000000475 decay: 0.0
Validating  acc: 0.762931034483 p: 0.850961538462 r: 0.762931034483 f1: 0.804545454545
new best score
Testing  acc: 0.766666666667 p: 0.825112107623 r: 0.766666666667 f1: 0.794816414687

train lr0.0010000000475 decay: 0.0
Validating  acc: 0.76724137931 p: 0.855769230769 r: 0.76724137931 f1: 0.809090909091
new best score
Testing  acc: 0.745833333333 p: 0.832558139535 r: 0.745833333333 f1: 0.786813186813

train lr0.0010000000475 decay: 0.0
Validating  acc: 0.76724137931 p: 0.843601895735 r: 0.76724137931 f1: 0.803611738149
Testing  acc: 0.741666666667 p: 0.820276497696 r: 0.741666666667 f1: 0.778993435449

train lr0.0010000000475 decay: 0.0
Validating  acc: 0.758620689655 p: 0.854368932039 r: 0.758620689655 f1: 0.803652968037
Testing  acc: 0.725 p: 0.844660194175 r: 0.725 f1: 0.780269058296

train lr0.0010000000475 decay: 0.0
Validating  acc: 0.73275862069 p: 0.845771144279 r: 0.73275862069 f1: 0.785219399538
Testing  acc: 0.7125 p: 0.834146341463 r: 0.7125 f1: 0.768539325843

train lr0.0010000000475 decay: 0.0
Validating  acc: 0.715517241379 p: 0.855670103093 r: 0.715517241379 f1: 0.779342723005
Testing  acc: 0.695833333333 p: 0.843434343434 r: 0.695833333333 f1: 0.762557077626

train lr0.0010000000475 decay: 0.0
Validating  acc: 0.724137931034 p: 0.848484848485 r: 0.724137931034 f1: 0.781395348837
early stopping
