train lr0.0010000000475 decay: 0.0
Validating  acc: 0.615120274914 p: 0.758474576271 r: 0.615120274914 f1: 0.679316888046
new best score
Testing  acc: 0.708333333333 p: 0.71686746988 r: 0.708333333333 f1: 0.712574850299

train lr0.0010000000475 decay: 0.0
Validating  acc: 0.72852233677 p: 0.791044776119 r: 0.72852233677 f1: 0.758497316637
new best score
Testing  acc: 0.755952380952 p: 0.734104046243 r: 0.755952380952 f1: 0.744868035191

train lr0.0010000000475 decay: 0.0
Validating  acc: 0.742268041237 p: 0.815094339623 r: 0.742268041237 f1: 0.776978417266
new best score
Testing  acc: 0.779761904762 p: 0.761627906977 r: 0.779761904762 f1: 0.770588235294

train lr0.0010000000475 decay: 0.0
Validating  acc: 0.769759450172 p: 0.820512820513 r: 0.769759450172 f1: 0.794326241135
new best score
Testing  acc: 0.797619047619 p: 0.744444444444 r: 0.797619047619 f1: 0.770114942529

train lr0.0010000000475 decay: 0.0
Validating  acc: 0.773195876289 p: 0.821167883212 r: 0.773195876289 f1: 0.796460176991
new best score
Testing  acc: 0.794642857143 p: 0.752112676056 r: 0.794642857143 f1: 0.772793053546

train lr0.0010000000475 decay: 0.0
Validating  acc: 0.776632302405 p: 0.81884057971 r: 0.776632302405 f1: 0.797178130511
new best score
Testing  acc: 0.803571428571 p: 0.771428571429 r: 0.803571428571 f1: 0.787172011662

train lr0.0010000000475 decay: 0.0
Validating  acc: 0.773195876289 p: 0.812274368231 r: 0.773195876289 f1: 0.792253521127
Testing  acc: 0.803571428571 p: 0.778097982709 r: 0.803571428571 f1: 0.790629575403

train lr0.0010000000475 decay: 0.0
Validating  acc: 0.783505154639 p: 0.817204301075 r: 0.783505154639 f1: 0.8
new best score
Testing  acc: 0.785714285714 p: 0.781065088757 r: 0.785714285714 f1: 0.783382789318

train lr0.0010000000475 decay: 0.0
Validating  acc: 0.776632302405 p: 0.833948339483 r: 0.776632302405 f1: 0.804270462633
new best score
Testing  acc: 0.785714285714 p: 0.790419161677 r: 0.785714285714 f1: 0.788059701493

train lr0.0010000000475 decay: 0.0
Validating  acc: 0.731958762887 p: 0.848605577689 r: 0.731958762887 f1: 0.785977859779
Testing  acc: 0.770833333333 p: 0.819620253165 r: 0.770833333333 f1: 0.794478527607

train lr0.0010000000475 decay: 0.0
Validating  acc: 0.773195876289 p: 0.833333333333 r: 0.773195876289 f1: 0.802139037433
Testing  acc: 0.785714285714 p: 0.792792792793 r: 0.785714285714 f1: 0.789237668161

train lr0.0010000000475 decay: 0.0
Validating  acc: 0.735395189003 p: 0.856 r: 0.735395189003 f1: 0.79112754159
Testing  acc: 0.776785714286 p: 0.818181818182 r: 0.776785714286 f1: 0.796946564885

train lr0.0010000000475 decay: 0.0
Validating  acc: 0.752577319588 p: 0.869047619048 r: 0.752577319588 f1: 0.806629834254
new best score
Testing  acc: 0.776785714286 p: 0.825949367089 r: 0.776785714286 f1: 0.800613496933

train lr0.0010000000475 decay: 0.0
Validating  acc: 0.718213058419 p: 0.893162393162 r: 0.718213058419 f1: 0.79619047619
Testing  acc: 0.755952380952 p: 0.838283828383 r: 0.755952380952 f1: 0.794992175274

train lr0.0010000000475 decay: 0.0
Validating  acc: 0.714776632302 p: 0.885106382979 r: 0.714776632302 f1: 0.790874524715
Testing  acc: 0.755952380952 p: 0.832786885246 r: 0.755952380952 f1: 0.792511700468

train lr0.0010000000475 decay: 0.0
Validating  acc: 0.721649484536 p: 0.878661087866 r: 0.721649484536 f1: 0.792452830189
Testing  acc: 0.758928571429 p: 0.833333333333 r: 0.758928571429 f1: 0.794392523364

train lr0.0010000000475 decay: 0.0
Validating  acc: 0.707903780069 p: 0.899563318777 r: 0.707903780069 f1: 0.792307692308
Testing  acc: 0.738095238095 p: 0.855172413793 r: 0.738095238095 f1: 0.792332268371

train lr0.0010000000475 decay: 0.0
Validating  acc: 0.704467353952 p: 0.899122807018 r: 0.704467353952 f1: 0.789980732177
early stopping
