train lr0.0010000000475 decay: 0.0
Validating  acc: 0.60775862069 p: 0.779005524862 r: 0.60775862069 f1: 0.682808716707
new best score
Testing  acc: 0.566666666667 p: 0.777142857143 r: 0.566666666667 f1: 0.655421686747

train lr0.0010000000475 decay: 0.0
Validating  acc: 0.568965517241 p: 0.795180722892 r: 0.568965517241 f1: 0.663316582915
Testing  acc: 0.5375 p: 0.801242236025 r: 0.5375 f1: 0.643391521197

train lr0.0010000000475 decay: 0.0
Validating  acc: 0.568965517241 p: 0.8 r: 0.568965517241 f1: 0.664987405542
Testing  acc: 0.525 p: 0.79746835443 r: 0.525 f1: 0.633165829146

train lr0.0010000000475 decay: 0.0
Validating  acc: 0.573275862069 p: 0.791666666667 r: 0.573275862069 f1: 0.665
Testing  acc: 0.525 p: 0.792452830189 r: 0.525 f1: 0.631578947368

train lr0.0010000000475 decay: 0.0
Validating  acc: 0.573275862069 p: 0.786982248521 r: 0.573275862069 f1: 0.663341645885
Testing  acc: 0.520833333333 p: 0.796178343949 r: 0.520833333333 f1: 0.629722921914

train lr0.0010000000475 decay: 0.0
Validating  acc: 0.577586206897 p: 0.792899408284 r: 0.577586206897 f1: 0.668329177057
early stopping
