train lr0.0010000000474974513 decay: 0.0
Validating  acc: 0.3142857142857143 p: 0.4925373134328358 r: 0.3142857142857143 f1: 0.3837209302325581
new best score!
Testing  acc: 0.2627118644067797 p: 0.40789473684210525 r: 0.2627118644067797 f1: 0.3195876288659794

train lr0.0010000000474974513 decay: 0.0
Validating  acc: 0.2857142857142857 p: 0.5084745762711864 r: 0.2857142857142857 f1: 0.36585365853658536
Testing  acc: 0.2627118644067797 p: 0.41333333333333333 r: 0.2627118644067797 f1: 0.3212435233160622

train lr0.0010000000474974513 decay: 0.0
Validating  acc: 0.26666666666666666 p: 0.5283018867924528 r: 0.26666666666666666 f1: 0.3544303797468354
Testing  acc: 0.2457627118644068 p: 0.42028985507246375 r: 0.2457627118644068 f1: 0.3101604278074866

train lr0.0010000000474974513 decay: 0.0
Validating  acc: 0.23809523809523808 p: 0.5813953488372093 r: 0.23809523809523808 f1: 0.33783783783783783
Testing  acc: 0.2288135593220339 p: 0.421875 r: 0.2288135593220339 f1: 0.29670329670329665

train lr0.0010000000474974513 decay: 0.0
Validating  acc: 0.22857142857142856 p: 0.6153846153846154 r: 0.22857142857142856 f1: 0.3333333333333333
Testing  acc: 0.211864406779661 p: 0.43103448275862066 r: 0.211864406779661 f1: 0.28409090909090906

train lr0.0010000000474974513 decay: 0.0
Validating  acc: 0.20952380952380953 p: 0.6111111111111112 r: 0.20952380952380953 f1: 0.3120567375886525
Testing  acc: 0.17796610169491525 p: 0.4117647058823529 r: 0.17796610169491525 f1: 0.2485207100591716

train lr0.0010000000474974513 decay: 0.0
Validating  acc: 0.21904761904761905 p: 0.575 r: 0.21904761904761905 f1: 0.31724137931034485
early stopping
