train lr0.0010000000474974513 decay: 0.0
Validating  acc: 0.5292096219931272 p: 0.7586206896551724 r: 0.5292096219931272 f1: 0.6234817813765182
new best score
Testing  acc: 0.6577380952380952 p: 0.7366666666666667 r: 0.6577380952380952 f1: 0.6949685534591196

train lr0.0010000000474974513 decay: 0.0
Validating  acc: 0.5154639175257731 p: 0.78125 r: 0.5154639175257731 f1: 0.6211180124223602
Testing  acc: 0.6398809523809523 p: 0.7543859649122807 r: 0.6398809523809523 f1: 0.6924315619967795

train lr0.0010000000474974513 decay: 0.0
Validating  acc: 0.5120274914089347 p: 0.7801047120418848 r: 0.5120274914089347 f1: 0.6182572614107884
Testing  acc: 0.6279761904761905 p: 0.7700729927007299 r: 0.6279761904761905 f1: 0.6918032786885246

train lr0.0010000000474974513 decay: 0.0
Validating  acc: 0.4948453608247423 p: 0.8044692737430168 r: 0.4948453608247423 f1: 0.6127659574468085
early stopping
