train lr0.0010000000475 decay: 0.0
Validating  acc: 0.6735395189 p: 0.875 r: 0.6735395189 f1: 0.761165048544
new best score
Testing  acc: 0.705357142857 p: 0.861818181818 r: 0.705357142857 f1: 0.775777414075

train lr0.0010000000475 decay: 0.0
Validating  acc: 0.670103092784 p: 0.911214953271 r: 0.670103092784 f1: 0.772277227723
new best score
Testing  acc: 0.744047619048 p: 0.868055555556 r: 0.744047619048 f1: 0.801282051282

train lr0.0010000000475 decay: 0.0
Validating  acc: 0.683848797251 p: 0.892376681614 r: 0.683848797251 f1: 0.774319066148
new best score
Testing  acc: 0.779761904762 p: 0.864686468647 r: 0.779761904762 f1: 0.820031298905

train lr0.0010000000475 decay: 0.0
Validating  acc: 0.701030927835 p: 0.923076923077 r: 0.701030927835 f1: 0.796875
new best score
Testing  acc: 0.800595238095 p: 0.864951768489 r: 0.800595238095 f1: 0.831530139104

train lr0.0010000000475 decay: 0.0
Validating  acc: 0.735395189003 p: 0.869918699187 r: 0.735395189003 f1: 0.797020484171
new best score
Testing  acc: 0.824404761905 p: 0.854938271605 r: 0.824404761905 f1: 0.839393939394

train lr0.0010000000475 decay: 0.0
Validating  acc: 0.749140893471 p: 0.886178861789 r: 0.749140893471 f1: 0.811918063315
new best score
Testing  acc: 0.827380952381 p: 0.86875 r: 0.827380952381 f1: 0.84756097561

train lr0.0010000000475 decay: 0.0
Validating  acc: 0.759450171821 p: 0.913223140496 r: 0.759450171821 f1: 0.829268292683
new best score
Testing  acc: 0.827380952381 p: 0.858024691358 r: 0.827380952381 f1: 0.842424242424

train lr0.0010000000475 decay: 0.0
Validating  acc: 0.756013745704 p: 0.897959183673 r: 0.756013745704 f1: 0.820895522388
Testing  acc: 0.83630952381 p: 0.861963190184 r: 0.83630952381 f1: 0.848942598187

train lr0.0010000000475 decay: 0.0
Validating  acc: 0.769759450172 p: 0.885375494071 r: 0.769759450172 f1: 0.823529411765
Testing  acc: 0.85119047619 p: 0.843657817109 r: 0.85119047619 f1: 0.847407407407

train lr0.0010000000475 decay: 0.0
Validating  acc: 0.790378006873 p: 0.858208955224 r: 0.790378006873 f1: 0.8228980322
Testing  acc: 0.860119047619 p: 0.821022727273 r: 0.860119047619 f1: 0.84011627907

train lr0.0010000000475 decay: 0.0
Validating  acc: 0.790378006873 p: 0.839416058394 r: 0.790378006873 f1: 0.814159292035
Testing  acc: 0.869047619048 p: 0.806629834254 r: 0.869047619048 f1: 0.836676217765

train lr0.0010000000475 decay: 0.0
Validating  acc: 0.786941580756 p: 0.841911764706 r: 0.786941580756 f1: 0.813499111901
early stopping
