train lr0.0010000000474974513 decay: 0.0
Validating  acc: 0.6116838487972509 p: 0.8240740740740741 r: 0.6116838487972509 f1: 0.7021696252465485
new best score
Testing  acc: 0.6636904761904762 p: 0.8446969696969697 r: 0.6636904761904762 f1: 0.7433333333333333

train lr0.0010000000474974513 decay: 0.0
Validating  acc: 0.6116838487972509 p: 0.8557692307692307 r: 0.6116838487972509 f1: 0.7134268537074148
new best score
Testing  acc: 0.6785714285714286 p: 0.8603773584905661 r: 0.6785714285714286 f1: 0.7587354409317804

train lr0.0010000000474974513 decay: 0.0
Validating  acc: 0.6288659793814433 p: 0.8511627906976744 r: 0.6288659793814433 f1: 0.7233201581027668
new best score
Testing  acc: 0.7261904761904762 p: 0.8621908127208481 r: 0.7261904761904762 f1: 0.7883683360258481

train lr0.0010000000474974513 decay: 0.0
Validating  acc: 0.6185567010309279 p: 0.8530805687203792 r: 0.6185567010309279 f1: 0.7171314741035857
Testing  acc: 0.7291666666666666 p: 0.8536585365853658 r: 0.7291666666666666 f1: 0.7865168539325843

train lr0.0010000000474974513 decay: 0.0
Validating  acc: 0.6357388316151202 p: 0.8371040723981901 r: 0.6357388316151202 f1: 0.72265625
Testing  acc: 0.7529761904761905 p: 0.834983498349835 r: 0.7529761904761905 f1: 0.7918622848200313

train lr0.0010000000474974513 decay: 0.0
Validating  acc: 0.6288659793814433 p: 0.8755980861244019 r: 0.6288659793814433 f1: 0.732
new best score
Testing  acc: 0.7589285714285714 p: 0.8585858585858586 r: 0.7589285714285714 f1: 0.8056872037914691

train lr0.0010000000474974513 decay: 0.0
Validating  acc: 0.6426116838487973 p: 0.8617511520737328 r: 0.6426116838487973 f1: 0.736220472440945
new best score
Testing  acc: 0.7648809523809523 p: 0.8453947368421053 r: 0.7648809523809523 f1: 0.8031250000000001

train lr0.0010000000474974513 decay: 0.0
Validating  acc: 0.6494845360824743 p: 0.8669724770642202 r: 0.6494845360824743 f1: 0.7426326129666012
new best score
Testing  acc: 0.7708333333333334 p: 0.8409090909090909 r: 0.7708333333333334 f1: 0.8043478260869567

train lr0.0010000000474974513 decay: 0.0
Validating  acc: 0.5979381443298969 p: 0.8787878787878788 r: 0.5979381443298969 f1: 0.7116564417177913
Testing  acc: 0.7321428571428571 p: 0.8541666666666666 r: 0.7321428571428571 f1: 0.7884615384615384

train lr0.0010000000474974513 decay: 0.0
Validating  acc: 0.6597938144329897 p: 0.8421052631578947 r: 0.6597938144329897 f1: 0.7398843930635839
Testing  acc: 0.7946428571428571 p: 0.8165137614678899 r: 0.7946428571428571 f1: 0.8054298642533937

train lr0.0010000000474974513 decay: 0.0
Validating  acc: 0.6735395189003437 p: 0.8270042194092827 r: 0.6735395189003437 f1: 0.7424242424242425
Testing  acc: 0.7976190476190477 p: 0.7976190476190477 r: 0.7976190476190477 f1: 0.7976190476190477

train lr0.0010000000474974513 decay: 0.0
Validating  acc: 0.6735395189003437 p: 0.8132780082987552 r: 0.6735395189003437 f1: 0.736842105263158
Testing  acc: 0.8303571428571429 p: 0.7903682719546742 r: 0.8303571428571429 f1: 0.8098693759071117

train lr0.0010000000474974513 decay: 0.0
Validating  acc: 0.6632302405498282 p: 0.8041666666666667 r: 0.6632302405498282 f1: 0.7269303201506592
Testing  acc: 0.7886904761904762 p: 0.7886904761904762 r: 0.7886904761904762 f1: 0.7886904761904763

train lr0.0010000000474974513 decay: 0.0
Validating  acc: 0.6701030927835051 p: 0.7991803278688525 r: 0.6701030927835051 f1: 0.7289719626168224
early stopping
