train lr0.0010000000474974513 decay: 0.0
Validating  acc: 0.3161512027491409 p: 0.696969696969697 r: 0.3161512027491409 f1: 0.43498817966903075
new best score
Testing  acc: 0.4017857142857143 p: 0.7336956521739131 r: 0.4017857142857143 f1: 0.5192307692307693

train lr0.0010000000474974513 decay: 0.0
Validating  acc: 0.37800687285223367 p: 0.7096774193548387 r: 0.37800687285223367 f1: 0.49327354260089684
new best score
Testing  acc: 0.49404761904761907 p: 0.7280701754385965 r: 0.49404761904761907 f1: 0.5886524822695035

train lr0.0010000000474974513 decay: 0.0
Validating  acc: 0.41580756013745707 p: 0.7159763313609467 r: 0.41580756013745707 f1: 0.5260869565217392
new best score
Testing  acc: 0.5535714285714286 p: 0.7181467181467182 r: 0.5535714285714286 f1: 0.6252100840336134

train lr0.0010000000474974513 decay: 0.0
Validating  acc: 0.47766323024054985 p: 0.7595628415300546 r: 0.47766323024054985 f1: 0.5864978902953587
new best score
Testing  acc: 0.5684523809523809 p: 0.6996336996336996 r: 0.5684523809523809 f1: 0.6272577996715927

train lr0.0010000000474974513 decay: 0.0
Validating  acc: 0.43986254295532645 p: 0.7710843373493976 r: 0.43986254295532645 f1: 0.5601750547045952
Testing  acc: 0.5357142857142857 p: 0.728744939271255 r: 0.5357142857142857 f1: 0.6174957118353345

train lr0.0010000000474974513 decay: 0.0
Validating  acc: 0.5429553264604811 p: 0.7417840375586855 r: 0.5429553264604811 f1: 0.6269841269841271
new best score
Testing  acc: 0.6160714285714286 p: 0.7162629757785467 r: 0.6160714285714286 f1: 0.6624000000000001

train lr0.0010000000474974513 decay: 0.0
Validating  acc: 0.5601374570446735 p: 0.7309417040358744 r: 0.5601374570446735 f1: 0.6342412451361868
new best score
Testing  acc: 0.6339285714285714 p: 0.71 r: 0.6339285714285714 f1: 0.6698113207547169

train lr0.0010000000474974513 decay: 0.0
Validating  acc: 0.570446735395189 p: 0.7280701754385965 r: 0.570446735395189 f1: 0.6396917148362234
new best score
Testing  acc: 0.6517857142857143 p: 0.711038961038961 r: 0.6517857142857143 f1: 0.6801242236024845

train lr0.0010000000474974513 decay: 0.0
Validating  acc: 0.5738831615120275 p: 0.7076271186440678 r: 0.5738831615120275 f1: 0.6337760910815939
Testing  acc: 0.6547619047619048 p: 0.6896551724137931 r: 0.6547619047619048 f1: 0.6717557251908398

train lr0.0010000000474974513 decay: 0.0
Validating  acc: 0.5807560137457045 p: 0.6814516129032258 r: 0.5807560137457045 f1: 0.62708719851577
Testing  acc: 0.6845238095238095 p: 0.6927710843373494 r: 0.6845238095238095 f1: 0.688622754491018

train lr0.0010000000474974513 decay: 0.0
Validating  acc: 0.5223367697594502 p: 0.7450980392156863 r: 0.5223367697594502 f1: 0.6141414141414142
Testing  acc: 0.5863095238095238 p: 0.7296296296296296 r: 0.5863095238095238 f1: 0.6501650165016502

train lr0.0010000000474974513 decay: 0.0
Validating  acc: 0.5463917525773195 p: 0.75 r: 0.5463917525773195 f1: 0.63220675944334
Testing  acc: 0.6071428571428571 p: 0.7472527472527473 r: 0.6071428571428571 f1: 0.6699507389162561

train lr0.0010000000474974513 decay: 0.0
Validating  acc: 0.5738831615120275 p: 0.7292576419213974 r: 0.5738831615120275 f1: 0.6423076923076924
new best score
Testing  acc: 0.6369047619047619 p: 0.7303754266211604 r: 0.6369047619047619 f1: 0.6804451510333863

