train lr0.0010000000474974513 decay: 0.0
Validating  acc: 0.40893470790378006 p: 0.8040540540540541 r: 0.40893470790378006 f1: 0.5421412300683371
new best score
Testing  acc: 0.5357142857142857 p: 0.7758620689655172 r: 0.5357142857142857 f1: 0.6338028169014084

train lr0.0010000000474974513 decay: 0.0
Validating  acc: 0.46735395189003437 p: 0.7640449438202247 r: 0.46735395189003437 f1: 0.579957356076759
new best score
Testing  acc: 0.5922619047619048 p: 0.737037037037037 r: 0.5922619047619048 f1: 0.6567656765676568

train lr0.0010000000474974513 decay: 0.0
Validating  acc: 0.4879725085910653 p: 0.7759562841530054 r: 0.4879725085910653 f1: 0.5991561181434599
new best score
Testing  acc: 0.6101190476190477 p: 0.7509157509157509 r: 0.6101190476190477 f1: 0.6732348111658457

train lr0.0010000000474974513 decay: 0.0
Validating  acc: 0.5429553264604811 p: 0.7821782178217822 r: 0.5429553264604811 f1: 0.6409736308316429
new best score
Testing  acc: 0.6428571428571429 p: 0.7297297297297297 r: 0.6428571428571429 f1: 0.6835443037974683

train lr0.0010000000474974513 decay: 0.0
Validating  acc: 0.5670103092783505 p: 0.7674418604651163 r: 0.5670103092783505 f1: 0.6521739130434783
new best score
Testing  acc: 0.6577380952380952 p: 0.7106109324758842 r: 0.6577380952380952 f1: 0.6831530139103555

train lr0.0010000000474974513 decay: 0.0
Validating  acc: 0.6082474226804123 p: 0.7137096774193549 r: 0.6082474226804123 f1: 0.6567717996289425
new best score
Testing  acc: 0.7291666666666666 p: 0.6786703601108033 r: 0.7291666666666666 f1: 0.703012912482066

train lr0.0010000000474974513 decay: 0.0
Validating  acc: 0.5876288659793815 p: 0.7154811715481172 r: 0.5876288659793815 f1: 0.6452830188679246
Testing  acc: 0.6994047619047619 p: 0.6891495601173021 r: 0.6994047619047619 f1: 0.6942392909896603

train lr0.0010000000474974513 decay: 0.0
Validating  acc: 0.5738831615120275 p: 0.7167381974248928 r: 0.5738831615120275 f1: 0.6374045801526718
Testing  acc: 0.6755952380952381 p: 0.709375 r: 0.6755952380952381 f1: 0.6920731707317073

train lr0.0010000000474974513 decay: 0.0
Validating  acc: 0.6082474226804123 p: 0.6996047430830039 r: 0.6082474226804123 f1: 0.650735294117647
Testing  acc: 0.7083333333333334 p: 0.664804469273743 r: 0.7083333333333334 f1: 0.6858789625360231

train lr0.0010000000474974513 decay: 0.0
Validating  acc: 0.6185567010309279 p: 0.6741573033707865 r: 0.6185567010309279 f1: 0.6451612903225807
Testing  acc: 0.7380952380952381 p: 0.6358974358974359 r: 0.7380952380952381 f1: 0.6831955922865014

train lr0.0010000000474974513 decay: 0.0
Validating  acc: 0.6048109965635738 p: 0.6984126984126984 r: 0.6048109965635738 f1: 0.6482504604051565
Testing  acc: 0.7023809523809523 p: 0.6781609195402298 r: 0.7023809523809523 f1: 0.6900584795321637

train lr0.0010000000474974513 decay: 0.0
Validating  acc: 0.6494845360824743 p: 0.6631578947368421 r: 0.6494845360824743 f1: 0.65625
early stopping
