train lr0.0010000000475 decay: 0.0
Validating  acc: 0.652920962199 p: 0.727969348659 r: 0.652920962199 f1: 0.688405797101
new best score
Testing  acc: 0.714285714286 p: 0.712166172107 r: 0.714285714286 f1: 0.713224368499

train lr0.0010000000475 decay: 0.0
Validating  acc: 0.66323024055 p: 0.739463601533 r: 0.66323024055 f1: 0.699275362319
new best score
Testing  acc: 0.71130952381 p: 0.715568862275 r: 0.71130952381 f1: 0.713432835821

train lr0.0010000000475 decay: 0.0
Validating  acc: 0.642611683849 p: 0.748 r: 0.642611683849 f1: 0.691312384473
Testing  acc: 0.71130952381 p: 0.735384615385 r: 0.71130952381 f1: 0.723146747352

train lr0.0010000000475 decay: 0.0
Validating  acc: 0.639175257732 p: 0.762295081967 r: 0.639175257732 f1: 0.695327102804
Testing  acc: 0.699404761905 p: 0.743670886076 r: 0.699404761905 f1: 0.720858895706

train lr0.0010000000475 decay: 0.0
Validating  acc: 0.635738831615 p: 0.77731092437 r: 0.635738831615 f1: 0.69943289225
new best score
Testing  acc: 0.696428571429 p: 0.75 r: 0.696428571429 f1: 0.722222222222

train lr0.0010000000475 decay: 0.0
Validating  acc: 0.628865979381 p: 0.785407725322 r: 0.628865979381 f1: 0.698473282443
Testing  acc: 0.690476190476 p: 0.760655737705 r: 0.690476190476 f1: 0.723868954758

train lr0.0010000000475 decay: 0.0
Validating  acc: 0.635738831615 p: 0.787234042553 r: 0.635738831615 f1: 0.703422053232
new best score
Testing  acc: 0.684523809524 p: 0.759075907591 r: 0.684523809524 f1: 0.719874804382

train lr0.0010000000475 decay: 0.0
Validating  acc: 0.632302405498 p: 0.789699570815 r: 0.632302405498 f1: 0.702290076336
Testing  acc: 0.690476190476 p: 0.760655737705 r: 0.690476190476 f1: 0.723868954758

train lr0.0010000000475 decay: 0.0
Validating  acc: 0.618556701031 p: 0.8 r: 0.618556701031 f1: 0.697674418605
Testing  acc: 0.681547619048 p: 0.778911564626 r: 0.681547619048 f1: 0.726984126984

train lr0.0010000000475 decay: 0.0
Validating  acc: 0.618556701031 p: 0.810810810811 r: 0.618556701031 f1: 0.701754385965
Testing  acc: 0.681547619048 p: 0.78156996587 r: 0.681547619048 f1: 0.72813990461

train lr0.0010000000475 decay: 0.0
Validating  acc: 0.625429553265 p: 0.808888888889 r: 0.625429553265 f1: 0.705426356589
new best score
Testing  acc: 0.684523809524 p: 0.779661016949 r: 0.684523809524 f1: 0.729001584786

train lr0.0010000000475 decay: 0.0
Validating  acc: 0.628865979381 p: 0.809734513274 r: 0.628865979381 f1: 0.707930367505
new best score
Testing  acc: 0.6875 p: 0.777777777778 r: 0.6875 f1: 0.729857819905

train lr0.0010000000475 decay: 0.0
Validating  acc: 0.618556701031 p: 0.810810810811 r: 0.618556701031 f1: 0.701754385965
Testing  acc: 0.681547619048 p: 0.784246575342 r: 0.681547619048 f1: 0.729299363057

train lr0.0010000000475 decay: 0.0
Validating  acc: 0.625429553265 p: 0.8125 r: 0.625429553265 f1: 0.706796116505
Testing  acc: 0.6875 p: 0.777777777778 r: 0.6875 f1: 0.729857819905

train lr0.0010000000475 decay: 0.0
Validating  acc: 0.625429553265 p: 0.8125 r: 0.625429553265 f1: 0.706796116505
Testing  acc: 0.6875 p: 0.780405405405 r: 0.6875 f1: 0.731012658228

train lr0.0010000000475 decay: 0.0
Validating  acc: 0.632302405498 p: 0.814159292035 r: 0.632302405498 f1: 0.711798839458
new best score
Testing  acc: 0.6875 p: 0.780405405405 r: 0.6875 f1: 0.731012658228

train lr0.0010000000475 decay: 0.0
Validating  acc: 0.632302405498 p: 0.814159292035 r: 0.632302405498 f1: 0.711798839458
new best score
Testing  acc: 0.690476190476 p: 0.781144781145 r: 0.690476190476 f1: 0.733017377567

train lr0.0010000000475 decay: 0.0
Validating  acc: 0.625429553265 p: 0.8125 r: 0.625429553265 f1: 0.706796116505
Testing  acc: 0.6875 p: 0.780405405405 r: 0.6875 f1: 0.731012658228

train lr0.0010000000475 decay: 0.0
Validating  acc: 0.635738831615 p: 0.811403508772 r: 0.635738831615 f1: 0.712909441233
new best score
Testing  acc: 0.690476190476 p: 0.778523489933 r: 0.690476190476 f1: 0.731861198738

train lr0.0010000000475 decay: 0.0
Validating  acc: 0.628865979381 p: 0.809734513274 r: 0.628865979381 f1: 0.707930367505
Testing  acc: 0.690476190476 p: 0.778523489933 r: 0.690476190476 f1: 0.731861198738

train lr0.0010000000475 decay: 0.0
Validating  acc: 0.618556701031 p: 0.818181818182 r: 0.618556701031 f1: 0.704500978474
Testing  acc: 0.681547619048 p: 0.789655172414 r: 0.681547619048 f1: 0.731629392971

train lr0.0010000000475 decay: 0.0
Validating  acc: 0.621993127148 p: 0.811659192825 r: 0.621993127148 f1: 0.704280155642
Testing  acc: 0.684523809524 p: 0.78231292517 r: 0.684523809524 f1: 0.730158730159

train lr0.0010000000475 decay: 0.0
Validating  acc: 0.621993127148 p: 0.811659192825 r: 0.621993127148 f1: 0.704280155642
Testing  acc: 0.684523809524 p: 0.78231292517 r: 0.684523809524 f1: 0.730158730159

train lr0.0010000000475 decay: 0.0
Validating  acc: 0.635738831615 p: 0.811403508772 r: 0.635738831615 f1: 0.712909441233
new best score
Testing  acc: 0.690476190476 p: 0.778523489933 r: 0.690476190476 f1: 0.731861198738

train lr0.0010000000475 decay: 0.0
Validating  acc: 0.618556701031 p: 0.814479638009 r: 0.618556701031 f1: 0.703125
Testing  acc: 0.678571428571 p: 0.786206896552 r: 0.678571428571 f1: 0.728434504792

train lr0.0010000000475 decay: 0.0
Validating  acc: 0.618556701031 p: 0.814479638009 r: 0.618556701031 f1: 0.703125
Testing  acc: 0.678571428571 p: 0.78892733564 r: 0.678571428571 f1: 0.7296

train lr0.0010000000475 decay: 0.0
Validating  acc: 0.625429553265 p: 0.816143497758 r: 0.625429553265 f1: 0.708171206226
Testing  acc: 0.681547619048 p: 0.786941580756 r: 0.681547619048 f1: 0.730462519936

train lr0.0010000000475 decay: 0.0
Validating  acc: 0.628865979381 p: 0.816964285714 r: 0.628865979381 f1: 0.71067961165
Testing  acc: 0.684523809524 p: 0.777027027027 r: 0.684523809524 f1: 0.727848101266

train lr0.0010000000475 decay: 0.0
Validating  acc: 0.628865979381 p: 0.809734513274 r: 0.628865979381 f1: 0.707930367505
Testing  acc: 0.6875 p: 0.775167785235 r: 0.6875 f1: 0.728706624606

train lr0.0010000000475 decay: 0.0
Validating  acc: 0.625429553265 p: 0.81981981982 r: 0.625429553265 f1: 0.70955165692
Testing  acc: 0.681547619048 p: 0.778911564626 r: 0.681547619048 f1: 0.726984126984

