train lr0.0010000000475 decay: 0.0
Validating  acc: 0.676975945017 p: 0.757692307692 r: 0.676975945017 f1: 0.715063520871
new best score
Testing  acc: 0.729166666667 p: 0.716374269006 r: 0.729166666667 f1: 0.722713864307

train lr0.0010000000475 decay: 0.0
Validating  acc: 0.687285223368 p: 0.766283524904 r: 0.687285223368 f1: 0.724637681159
new best score
Testing  acc: 0.755952380952 p: 0.725714285714 r: 0.755952380952 f1: 0.740524781341

train lr0.0010000000475 decay: 0.0
Validating  acc: 0.725085910653 p: 0.756272401434 r: 0.725085910653 f1: 0.740350877193
new best score
Testing  acc: 0.776785714286 p: 0.725 r: 0.776785714286 f1: 0.75

train lr0.0010000000475 decay: 0.0
Validating  acc: 0.752577319588 p: 0.763066202091 r: 0.752577319588 f1: 0.757785467128
new best score
Testing  acc: 0.797619047619 p: 0.732240437158 r: 0.797619047619 f1: 0.763532763533

train lr0.0010000000475 decay: 0.0
Validating  acc: 0.773195876289 p: 0.765306122449 r: 0.773195876289 f1: 0.769230769231
new best score
Testing  acc: 0.809523809524 p: 0.731182795699 r: 0.809523809524 f1: 0.768361581921

train lr0.0010000000475 decay: 0.0
Validating  acc: 0.773195876289 p: 0.767918088737 r: 0.773195876289 f1: 0.770547945205
new best score
Testing  acc: 0.830357142857 p: 0.732283464567 r: 0.830357142857 f1: 0.778242677824

train lr0.0010000000475 decay: 0.0
Validating  acc: 0.783505154639 p: 0.752475247525 r: 0.783505154639 f1: 0.767676767677
Testing  acc: 0.83630952381 p: 0.716836734694 r: 0.83630952381 f1: 0.771978021978

train lr0.0010000000475 decay: 0.0
Validating  acc: 0.797250859107 p: 0.750809061489 r: 0.797250859107 f1: 0.773333333333
new best score
Testing  acc: 0.839285714286 p: 0.719387755102 r: 0.839285714286 f1: 0.774725274725

train lr0.0010000000475 decay: 0.0
Validating  acc: 0.807560137457 p: 0.746031746032 r: 0.807560137457 f1: 0.775577557756
new best score
Testing  acc: 0.854166666667 p: 0.710396039604 r: 0.854166666667 f1: 0.775675675676

train lr0.0010000000475 decay: 0.0
Validating  acc: 0.817869415808 p: 0.748427672956 r: 0.817869415808 f1: 0.781609195402
new best score
Testing  acc: 0.863095238095 p: 0.717821782178 r: 0.863095238095 f1: 0.783783783784

train lr0.0010000000475 decay: 0.0
Validating  acc: 0.824742268041 p: 0.743034055728 r: 0.824742268041 f1: 0.781758957655
new best score
Testing  acc: 0.869047619048 p: 0.713936430318 r: 0.869047619048 f1: 0.78389261745

train lr0.0010000000475 decay: 0.0
Validating  acc: 0.824742268041 p: 0.743034055728 r: 0.824742268041 f1: 0.781758957655
new best score
Testing  acc: 0.875 p: 0.710144927536 r: 0.875 f1: 0.784

train lr0.0010000000475 decay: 0.0
Validating  acc: 0.828178694158 p: 0.741538461538 r: 0.828178694158 f1: 0.782467532468
new best score
Testing  acc: 0.877976190476 p: 0.705741626794 r: 0.877976190476 f1: 0.7824933687

train lr0.0010000000475 decay: 0.0
Validating  acc: 0.828178694158 p: 0.748447204969 r: 0.828178694158 f1: 0.786296900489
new best score
Testing  acc: 0.880952380952 p: 0.714975845411 r: 0.880952380952 f1: 0.789333333333

train lr0.0010000000475 decay: 0.0
Validating  acc: 0.828178694158 p: 0.748447204969 r: 0.828178694158 f1: 0.786296900489
new best score
Testing  acc: 0.883928571429 p: 0.710526315789 r: 0.883928571429 f1: 0.787798408488

train lr0.0010000000475 decay: 0.0
Validating  acc: 0.828178694158 p: 0.769968051118 r: 0.828178694158 f1: 0.798013245033
new best score
Testing  acc: 0.875 p: 0.733167082294 r: 0.875 f1: 0.797829036635

train lr0.0010000000475 decay: 0.0
Validating  acc: 0.831615120275 p: 0.758620689655 r: 0.831615120275 f1: 0.793442622951
Testing  acc: 0.880952380952 p: 0.718446601942 r: 0.880952380952 f1: 0.791443850267

train lr0.0010000000475 decay: 0.0
Validating  acc: 0.828178694158 p: 0.774919614148 r: 0.828178694158 f1: 0.800664451827
new best score
Testing  acc: 0.869047619048 p: 0.737373737374 r: 0.869047619048 f1: 0.79781420765

train lr0.0010000000475 decay: 0.0
Validating  acc: 0.828178694158 p: 0.769968051118 r: 0.828178694158 f1: 0.798013245033
Testing  acc: 0.869047619048 p: 0.735516372796 r: 0.869047619048 f1: 0.796725784447

train lr0.0010000000475 decay: 0.0
Validating  acc: 0.831615120275 p: 0.773162939297 r: 0.831615120275 f1: 0.801324503311
new best score
Testing  acc: 0.877976190476 p: 0.733830845771 r: 0.877976190476 f1: 0.79945799458

train lr0.0010000000475 decay: 0.0
Validating  acc: 0.828178694158 p: 0.782467532468 r: 0.828178694158 f1: 0.804674457429
new best score
Testing  acc: 0.872023809524 p: 0.736180904523 r: 0.872023809524 f1: 0.798365122616

train lr0.0010000000475 decay: 0.0
Validating  acc: 0.835051546392 p: 0.783870967742 r: 0.835051546392 f1: 0.808652246256
new best score
Testing  acc: 0.872023809524 p: 0.7325 r: 0.872023809524 f1: 0.796195652174

train lr0.0010000000475 decay: 0.0
Validating  acc: 0.831615120275 p: 0.785714285714 r: 0.831615120275 f1: 0.808013355593
Testing  acc: 0.866071428571 p: 0.738578680203 r: 0.866071428571 f1: 0.797260273973

train lr0.0010000000475 decay: 0.0
Validating  acc: 0.835051546392 p: 0.78640776699 r: 0.835051546392 f1: 0.81
new best score
Testing  acc: 0.872023809524 p: 0.738035264484 r: 0.872023809524 f1: 0.799454297408

train lr0.0010000000475 decay: 0.0
Validating  acc: 0.838487972509 p: 0.772151898734 r: 0.838487972509 f1: 0.803953871499
Testing  acc: 0.883928571429 p: 0.724390243902 r: 0.883928571429 f1: 0.796246648794

train lr0.0010000000475 decay: 0.0
Validating  acc: 0.824742268041 p: 0.8 r: 0.824742268041 f1: 0.812182741117
new best score
Testing  acc: 0.872023809524 p: 0.753213367609 r: 0.872023809524 f1: 0.808275862069

train lr0.0010000000475 decay: 0.0
Validating  acc: 0.824742268041 p: 0.813559322034 r: 0.824742268041 f1: 0.819112627986
new best score
Testing  acc: 0.866071428571 p: 0.763779527559 r: 0.866071428571 f1: 0.811715481172

train lr0.0010000000475 decay: 0.0
Validating  acc: 0.824742268041 p: 0.810810810811 r: 0.824742268041 f1: 0.817717206133
Testing  acc: 0.866071428571 p: 0.755844155844 r: 0.866071428571 f1: 0.80721220527

train lr0.0010000000475 decay: 0.0
Validating  acc: 0.824742268041 p: 0.810810810811 r: 0.824742268041 f1: 0.817717206133
Testing  acc: 0.863095238095 p: 0.755208333333 r: 0.863095238095 f1: 0.805555555556

train lr0.0010000000475 decay: 0.0
Validating  acc: 0.828178694158 p: 0.811447811448 r: 0.828178694158 f1: 0.819727891156
new best score
Testing  acc: 0.866071428571 p: 0.75 r: 0.866071428571 f1: 0.803867403315

