train lr0.05000000074505806 decay: 0.0
Validating  acc: 0.0 p: 0 r: 0.0 f1: 0
new best score!
Testing  acc: 0.0 p: 0 r: 0.0 f1: 0

train lr0.05000000074505806 decay: 0.0
Validating  acc: 0.0 p: 0 r: 0.0 f1: 0
new best score!
Testing  acc: 0.0 p: 0 r: 0.0 f1: 0

train lr0.05000000074505806 decay: 0.0
Validating  acc: 0.27469135802469136 p: 0.6137931034482759 r: 0.27469135802469136 f1: 0.3795309168443497
new best score!
Testing  acc: 0.21902017291066284 p: 0.6785714285714286 r: 0.21902017291066284 f1: 0.3311546840958606

train lr0.05000000074505806 decay: 0.0
Validating  acc: 0.5123456790123457 p: 0.5015105740181269 r: 0.5123456790123457 f1: 0.5068702290076337
new best score!
Testing  acc: 0.4812680115273775 p: 0.47714285714285715 r: 0.4812680115273775 f1: 0.4791965566714491

train lr0.05000000074505806 decay: 0.0
Validating  acc: 0.6327160493827161 p: 0.5061728395061729 r: 0.6327160493827161 f1: 0.56241426611797
new best score!
Testing  acc: 0.579250720461095 p: 0.5140664961636828 r: 0.579250720461095 f1: 0.5447154471544715

train lr0.05000000074505806 decay: 0.0
Validating  acc: 0.6574074074074074 p: 0.48853211009174313 r: 0.6574074074074074 f1: 0.5605263157894738
Testing  acc: 0.6282420749279539 p: 0.5069767441860465 r: 0.6282420749279539 f1: 0.5611325611325612

train lr0.05000000074505806 decay: 0.0
Validating  acc: 0.36419753086419754 p: 0.8676470588235294 r: 0.36419753086419754 f1: 0.5130434782608696
Testing  acc: 0.29971181556195964 p: 0.7536231884057971 r: 0.29971181556195964 f1: 0.42886597938144333

train lr0.05000000074505806 decay: 0.0
Validating  acc: 0.4074074074074074 p: 0.8354430379746836 r: 0.4074074074074074 f1: 0.5477178423236514
Testing  acc: 0.3256484149855908 p: 0.7583892617449665 r: 0.3256484149855908 f1: 0.45564516129032256

train lr0.05000000074505806 decay: 0.0
Validating  acc: 0.2932098765432099 p: 0.8260869565217391 r: 0.2932098765432099 f1: 0.4328018223234624
Testing  acc: 0.2680115273775216 p: 0.7948717948717948 r: 0.2680115273775216 f1: 0.40086206896551724

train lr0.05000000074505806 decay: 0.0
Validating  acc: 0.36419753086419754 p: 0.7972972972972973 r: 0.36419753086419754 f1: 0.5
Testing  acc: 0.29971181556195964 p: 0.7878787878787878 r: 0.29971181556195964 f1: 0.4342379958246346

train lr0.05000000074505806 decay: 0.0
Validating  acc: 0.19444444444444445 p: 0.8513513513513513 r: 0.19444444444444445 f1: 0.31658291457286436
early stopping
