train lr0.0010000000475 decay: 0.0
Validating  acc: 0.611683848797 p: 0.798206278027 r: 0.611683848797 f1: 0.692607003891
new best score
Testing  acc: 0.660714285714 p: 0.760273972603 r: 0.660714285714 f1: 0.707006369427

train lr0.0010000000475 decay: 0.0
Validating  acc: 0.604810996564 p: 0.8 r: 0.604810996564 f1: 0.688845401174
Testing  acc: 0.666666666667 p: 0.756756756757 r: 0.666666666667 f1: 0.708860759494

train lr0.0010000000475 decay: 0.0
Validating  acc: 0.642611683849 p: 0.782426778243 r: 0.642611683849 f1: 0.705660377358
new best score
Testing  acc: 0.720238095238 p: 0.746913580247 r: 0.720238095238 f1: 0.733333333333

train lr0.0010000000475 decay: 0.0
Validating  acc: 0.690721649485 p: 0.770114942529 r: 0.690721649485 f1: 0.728260869565
new best score
Testing  acc: 0.744047619048 p: 0.700280112045 r: 0.744047619048 f1: 0.721500721501

train lr0.0010000000475 decay: 0.0
Validating  acc: 0.694158075601 p: 0.742647058824 r: 0.694158075601 f1: 0.717584369449
Testing  acc: 0.767857142857 p: 0.701086956522 r: 0.767857142857 f1: 0.732954545455

train lr0.0010000000475 decay: 0.0
Validating  acc: 0.656357388316 p: 0.779591836735 r: 0.656357388316 f1: 0.712686567164
Testing  acc: 0.735119047619 p: 0.728613569322 r: 0.735119047619 f1: 0.731851851852

train lr0.0010000000475 decay: 0.0
Validating  acc: 0.731958762887 p: 0.722033898305 r: 0.731958762887 f1: 0.726962457338
Testing  acc: 0.78869047619 p: 0.660847880299 r: 0.78869047619 f1: 0.719131614654

train lr0.0010000000475 decay: 0.0
Validating  acc: 0.66323024055 p: 0.75390625 r: 0.66323024055 f1: 0.705667276051
Testing  acc: 0.755952380952 p: 0.715492957746 r: 0.755952380952 f1: 0.73516642547

train lr0.0010000000475 decay: 0.0
Validating  acc: 0.721649484536 p: 0.742049469965 r: 0.721649484536 f1: 0.731707317073
new best score
Testing  acc: 0.782738095238 p: 0.688481675393 r: 0.782738095238 f1: 0.732590529248

train lr0.0010000000475 decay: 0.0
Validating  acc: 0.707903780069 p: 0.765799256506 r: 0.707903780069 f1: 0.735714285714
new best score
Testing  acc: 0.755952380952 p: 0.705555555556 r: 0.755952380952 f1: 0.729885057471

train lr0.0010000000475 decay: 0.0
Validating  acc: 0.60824742268 p: 0.838862559242 r: 0.60824742268 f1: 0.705179282869
Testing  acc: 0.672619047619 p: 0.77133105802 r: 0.672619047619 f1: 0.718600953895

train lr0.0010000000475 decay: 0.0
Validating  acc: 0.642611683849 p: 0.799145299145 r: 0.642611683849 f1: 0.712380952381
Testing  acc: 0.71130952381 p: 0.733128834356 r: 0.71130952381 f1: 0.722054380665

train lr0.0010000000475 decay: 0.0
Validating  acc: 0.649484536082 p: 0.79746835443 r: 0.649484536082 f1: 0.715909090909
Testing  acc: 0.702380952381 p: 0.728395061728 r: 0.702380952381 f1: 0.715151515152

train lr0.0010000000475 decay: 0.0
Validating  acc: 0.66323024055 p: 0.794238683128 r: 0.66323024055 f1: 0.722846441948
Testing  acc: 0.714285714286 p: 0.722891566265 r: 0.714285714286 f1: 0.718562874251

train lr0.0010000000475 decay: 0.0
Validating  acc: 0.628865979381 p: 0.813333333333 r: 0.628865979381 f1: 0.709302325581
Testing  acc: 0.681547619048 p: 0.738709677419 r: 0.681547619048 f1: 0.708978328173

train lr0.0010000000475 decay: 0.0
Validating  acc: 0.659793814433 p: 0.793388429752 r: 0.659793814433 f1: 0.720450281426
Testing  acc: 0.717261904762 p: 0.723723723724 r: 0.717261904762 f1: 0.720478325859

train lr0.0010000000475 decay: 0.0
Validating  acc: 0.628865979381 p: 0.809734513274 r: 0.628865979381 f1: 0.707930367505
Testing  acc: 0.6875 p: 0.747572815534 r: 0.6875 f1: 0.716279069767

train lr0.0010000000475 decay: 0.0
Validating  acc: 0.639175257732 p: 0.805194805195 r: 0.639175257732 f1: 0.712643678161
early stopping
