train lr0.0010000000474974513 decay: 0.0
Validating  acc: 0.0 p: 0 r: 0.0 f1: 0
new best score!
Testing  acc: 0.0 p: 0 r: 0.0 f1: 0

train lr0.0010000000474974513 decay: 0.0
Validating  acc: 0.0 p: 0 r: 0.0 f1: 0
new best score!
Testing  acc: 0.0 p: 0 r: 0.0 f1: 0

train lr0.0010000000474974513 decay: 0.0
Validating  acc: 0.0 p: 0 r: 0.0 f1: 0
new best score!
Testing  acc: 0.0 p: 0 r: 0.0 f1: 0

train lr0.0010000000474974513 decay: 0.0
Validating  acc: 0.24074074074074073 p: 0.7155963302752294 r: 0.24074074074074073 f1: 0.36027713625866054
new best score!
Testing  acc: 0.2017291066282421 p: 0.7 r: 0.2017291066282421 f1: 0.3131991051454139

train lr0.0010000000474974513 decay: 0.0
Validating  acc: 0.37962962962962965 p: 0.6373056994818653 r: 0.37962962962962965 f1: 0.4758220502901354
new best score!
Testing  acc: 0.3371757925072046 p: 0.6610169491525424 r: 0.3371757925072046 f1: 0.4465648854961832

train lr0.0010000000474974513 decay: 0.0
Validating  acc: 0.47530864197530864 p: 0.719626168224299 r: 0.47530864197530864 f1: 0.5724907063197026
new best score!
Testing  acc: 0.40634005763688763 p: 0.7268041237113402 r: 0.40634005763688763 f1: 0.5212569316081331

train lr0.0010000000474974513 decay: 0.0
Validating  acc: 0.5277777777777778 p: 0.7844036697247706 r: 0.5277777777777778 f1: 0.6309963099630996
new best score!
Testing  acc: 0.484149855907781 p: 0.7741935483870968 r: 0.484149855907781 f1: 0.5957446808510638

train lr0.0010000000474974513 decay: 0.0
Validating  acc: 0.5864197530864198 p: 0.8225108225108225 r: 0.5864197530864198 f1: 0.6846846846846848
new best score!
Testing  acc: 0.5389048991354467 p: 0.8385650224215246 r: 0.5389048991354467 f1: 0.656140350877193

train lr0.0010000000474974513 decay: 0.0
Validating  acc: 0.6234567901234568 p: 0.8416666666666667 r: 0.6234567901234568 f1: 0.7163120567375887
new best score!
Testing  acc: 0.5821325648414986 p: 0.8523206751054853 r: 0.5821325648414986 f1: 0.6917808219178082

train lr0.0010000000474974513 decay: 0.0
Validating  acc: 0.6512345679012346 p: 0.854251012145749 r: 0.6512345679012346 f1: 0.7390542907180385
new best score!
Testing  acc: 0.622478386167147 p: 0.8744939271255061 r: 0.622478386167147 f1: 0.7272727272727273

train lr0.0010000000474974513 decay: 0.0
Validating  acc: 0.6820987654320988 p: 0.8599221789883269 r: 0.6820987654320988 f1: 0.7607573149741824
new best score!
Testing  acc: 0.6368876080691642 p: 0.8804780876494024 r: 0.6368876080691642 f1: 0.7391304347826086

train lr0.0010000000474974513 decay: 0.0
Validating  acc: 0.691358024691358 p: 0.8648648648648649 r: 0.691358024691358 f1: 0.7684391080617495
new best score!
Testing  acc: 0.6484149855907781 p: 0.8893280632411067 r: 0.6484149855907781 f1: 0.75

train lr0.0010000000474974513 decay: 0.0
Validating  acc: 0.6944444444444444 p: 0.8687258687258688 r: 0.6944444444444444 f1: 0.771869639794168
new best score!
Testing  acc: 0.6628242074927954 p: 0.8914728682170543 r: 0.6628242074927954 f1: 0.7603305785123967

train lr0.0010000000474974513 decay: 0.0
Validating  acc: 0.6975308641975309 p: 0.8659003831417624 r: 0.6975308641975309 f1: 0.7726495726495726
new best score!
Testing  acc: 0.6657060518731989 p: 0.8918918918918919 r: 0.6657060518731989 f1: 0.7623762376237623

train lr0.0010000000474974513 decay: 0.0
Validating  acc: 0.7067901234567902 p: 0.8641509433962264 r: 0.7067901234567902 f1: 0.7775891341256368
new best score!
Testing  acc: 0.6858789625360231 p: 0.8981132075471698 r: 0.6858789625360231 f1: 0.7777777777777778

train lr0.0010000000474974513 decay: 0.0
Validating  acc: 0.7129629629629629 p: 0.8716981132075472 r: 0.7129629629629629 f1: 0.7843803056027165
new best score!
Testing  acc: 0.6887608069164265 p: 0.8984962406015038 r: 0.6887608069164265 f1: 0.7797716150081566

train lr0.0010000000474974513 decay: 0.0
Validating  acc: 0.7191358024691358 p: 0.8629629629629629 r: 0.7191358024691358 f1: 0.7845117845117844
new best score!
Testing  acc: 0.6801152737752162 p: 0.9076923076923077 r: 0.6801152737752162 f1: 0.7775947281713346

train lr0.0010000000474974513 decay: 0.0
Validating  acc: 0.7098765432098766 p: 0.8679245283018868 r: 0.7098765432098766 f1: 0.7809847198641766
Testing  acc: 0.6714697406340058 p: 0.91015625 r: 0.6714697406340058 f1: 0.7728026533996682

train lr0.0010000000474974513 decay: 0.0
Validating  acc: 0.6975308641975309 p: 0.8625954198473282 r: 0.6975308641975309 f1: 0.7713310580204777
Testing  acc: 0.654178674351585 p: 0.9043824701195219 r: 0.654178674351585 f1: 0.7591973244147158

train lr0.0010000000474974513 decay: 0.0
Validating  acc: 0.691358024691358 p: 0.8582375478927203 r: 0.691358024691358 f1: 0.7658119658119658
Testing  acc: 0.6512968299711815 p: 0.904 r: 0.6512968299711815 f1: 0.7571189279731994

train lr0.0010000000474974513 decay: 0.0
Validating  acc: 0.6851851851851852 p: 0.8638132295719845 r: 0.6851851851851852 f1: 0.764199655765921
Testing  acc: 0.6455331412103746 p: 0.9105691056910569 r: 0.6455331412103746 f1: 0.7554806070826308

train lr0.0010000000474974513 decay: 0.0
Validating  acc: 0.6975308641975309 p: 0.8659003831417624 r: 0.6975308641975309 f1: 0.7726495726495726
Testing  acc: 0.659942363112392 p: 0.9051383399209486 r: 0.659942363112392 f1: 0.7633333333333333

train lr0.0010000000474974513 decay: 0.0
Validating  acc: 0.6574074074074074 p: 0.8838174273858921 r: 0.6574074074074074 f1: 0.7539823008849558
Testing  acc: 0.6253602305475504 p: 0.9156118143459916 r: 0.6253602305475504 f1: 0.7431506849315069

train lr0.0010000000474974513 decay: 0.0
Validating  acc: 0.6944444444444444 p: 0.8653846153846154 r: 0.6944444444444444 f1: 0.7705479452054794
Testing  acc: 0.659942363112392 p: 0.8980392156862745 r: 0.659942363112392 f1: 0.760797342192691

train lr0.0010000000474974513 decay: 0.0
Validating  acc: 0.6944444444444444 p: 0.8754863813229572 r: 0.6944444444444444 f1: 0.774526678141136
early stopping
