train lr0.0010000000475 decay: 0.0
Validating  acc: 0.646048109966 p: 0.850678733032 r: 0.646048109966 f1: 0.734375
new best score
Testing  acc: 0.717261904762 p: 0.842657342657 r: 0.717261904762 f1: 0.774919614148

train lr0.0010000000475 decay: 0.0
Validating  acc: 0.711340206186 p: 0.855371900826 r: 0.711340206186 f1: 0.776735459662
new best score
Testing  acc: 0.755952380952 p: 0.846666666667 r: 0.755952380952 f1: 0.798742138365

train lr0.0010000000475 decay: 0.0
Validating  acc: 0.752577319588 p: 0.858823529412 r: 0.752577319588 f1: 0.802197802198
new best score
Testing  acc: 0.830357142857 p: 0.835329341317 r: 0.830357142857 f1: 0.832835820896

train lr0.0010000000475 decay: 0.0
Validating  acc: 0.762886597938 p: 0.844106463878 r: 0.762886597938 f1: 0.801444043321
Testing  acc: 0.85119047619 p: 0.82183908046 r: 0.85119047619 f1: 0.836257309942

train lr0.0010000000475 decay: 0.0
Validating  acc: 0.762886597938 p: 0.860465116279 r: 0.762886597938 f1: 0.808743169399
new best score
Testing  acc: 0.845238095238 p: 0.818443804035 r: 0.845238095238 f1: 0.831625183016

train lr0.0010000000475 decay: 0.0
Validating  acc: 0.828178694158 p: 0.748447204969 r: 0.828178694158 f1: 0.786296900489
Testing  acc: 0.910714285714 p: 0.725118483412 r: 0.910714285714 f1: 0.807387862797

train lr0.0010000000475 decay: 0.0
Validating  acc: 0.838487972509 p: 0.701149425287 r: 0.838487972509 f1: 0.763693270736
Testing  acc: 0.922619047619 p: 0.676855895197 r: 0.922619047619 f1: 0.780856423174

train lr0.0010000000475 decay: 0.0
Validating  acc: 0.735395189003 p: 0.891666666667 r: 0.735395189003 f1: 0.806026365348
Testing  acc: 0.821428571429 p: 0.831325301205 r: 0.821428571429 f1: 0.826347305389

train lr0.0010000000475 decay: 0.0
Validating  acc: 0.72852233677 p: 0.898305084746 r: 0.72852233677 f1: 0.804554079696
Testing  acc: 0.8125 p: 0.822289156627 r: 0.8125 f1: 0.817365269461

train lr0.0010000000475 decay: 0.0
Validating  acc: 0.72852233677 p: 0.902127659574 r: 0.72852233677 f1: 0.80608365019
Testing  acc: 0.815476190476 p: 0.840490797546 r: 0.815476190476 f1: 0.827794561934

train lr0.0010000000475 decay: 0.0
Validating  acc: 0.711340206186 p: 0.9 r: 0.711340206186 f1: 0.79462571977
Testing  acc: 0.803571428571 p: 0.841121495327 r: 0.803571428571 f1: 0.821917808219

train lr0.0010000000475 decay: 0.0
Validating  acc: 0.718213058419 p: 0.904761904762 r: 0.718213058419 f1: 0.800766283525
Testing  acc: 0.8125 p: 0.847826086957 r: 0.8125 f1: 0.829787234043

train lr0.0010000000475 decay: 0.0
Validating  acc: 0.718213058419 p: 0.908695652174 r: 0.718213058419 f1: 0.802303262956
early stopping
