train lr0.0010000000475 decay: 0.0
Validating  acc: 0.587628865979 p: 0.863636363636 r: 0.587628865979 f1: 0.699386503067
new best score
Testing  acc: 0.654761904762 p: 0.839694656489 r: 0.654761904762 f1: 0.735785953177

train lr0.0010000000475 decay: 0.0
Validating  acc: 0.666666666667 p: 0.850877192982 r: 0.666666666667 f1: 0.747591522158
new best score
Testing  acc: 0.71130952381 p: 0.821305841924 r: 0.71130952381 f1: 0.762360446571

train lr0.0010000000475 decay: 0.0
Validating  acc: 0.694158075601 p: 0.852320675105 r: 0.694158075601 f1: 0.765151515152
new best score
Testing  acc: 0.72619047619 p: 0.818791946309 r: 0.72619047619 f1: 0.769716088328

train lr0.0010000000475 decay: 0.0
Validating  acc: 0.683848797251 p: 0.872807017544 r: 0.683848797251 f1: 0.766859344894
new best score
Testing  acc: 0.705357142857 p: 0.825783972125 r: 0.705357142857 f1: 0.760834670947

train lr0.0010000000475 decay: 0.0
Validating  acc: 0.676975945017 p: 0.887387387387 r: 0.676975945017 f1: 0.768031189084
new best score
Testing  acc: 0.699404761905 p: 0.836298932384 r: 0.699404761905 f1: 0.761750405186

train lr0.0010000000475 decay: 0.0
Validating  acc: 0.697594501718 p: 0.882608695652 r: 0.697594501718 f1: 0.779270633397
new best score
Testing  acc: 0.72619047619 p: 0.821548821549 r: 0.72619047619 f1: 0.77093206951

train lr0.0010000000475 decay: 0.0
Validating  acc: 0.694158075601 p: 0.882096069869 r: 0.694158075601 f1: 0.776923076923
Testing  acc: 0.717261904762 p: 0.819727891156 r: 0.717261904762 f1: 0.765079365079

train lr0.0010000000475 decay: 0.0
Validating  acc: 0.776632302405 p: 0.840148698885 r: 0.776632302405 f1: 0.807142857143
new best score
Testing  acc: 0.797619047619 p: 0.781341107872 r: 0.797619047619 f1: 0.789396170839

train lr0.0010000000475 decay: 0.0
Validating  acc: 0.762886597938 p: 0.831460674157 r: 0.762886597938 f1: 0.795698924731
Testing  acc: 0.785714285714 p: 0.785714285714 r: 0.785714285714 f1: 0.785714285714

train lr0.0010000000475 decay: 0.0
Validating  acc: 0.704467353952 p: 0.87982832618 r: 0.704467353952 f1: 0.782442748092
Testing  acc: 0.729166666667 p: 0.830508474576 r: 0.729166666667 f1: 0.776545166403

train lr0.0010000000475 decay: 0.0
Validating  acc: 0.725085910653 p: 0.89029535865 r: 0.725085910653 f1: 0.799242424242
Testing  acc: 0.747023809524 p: 0.828382838284 r: 0.747023809524 f1: 0.785602503912

train lr0.0010000000475 decay: 0.0
Validating  acc: 0.745704467354 p: 0.850980392157 r: 0.745704467354 f1: 0.794871794872
Testing  acc: 0.782738095238 p: 0.799392097264 r: 0.782738095238 f1: 0.790977443609

train lr0.0010000000475 decay: 0.0
Validating  acc: 0.790378006873 p: 0.821428571429 r: 0.790378006873 f1: 0.805604203152
Testing  acc: 0.803571428571 p: 0.767045454545 r: 0.803571428571 f1: 0.78488372093

train lr0.0010000000475 decay: 0.0
Validating  acc: 0.756013745704 p: 0.866141732283 r: 0.756013745704 f1: 0.807339449541
new best score
Testing  acc: 0.779761904762 p: 0.791540785498 r: 0.779761904762 f1: 0.785607196402

train lr0.0010000000475 decay: 0.0
Validating  acc: 0.766323024055 p: 0.841509433962 r: 0.766323024055 f1: 0.802158273381
Testing  acc: 0.791666666667 p: 0.773255813953 r: 0.791666666667 f1: 0.782352941176

train lr0.0010000000475 decay: 0.0
Validating  acc: 0.769759450172 p: 0.842105263158 r: 0.769759450172 f1: 0.804308797127
Testing  acc: 0.78869047619 p: 0.779411764706 r: 0.78869047619 f1: 0.784023668639

train lr0.0010000000475 decay: 0.0
Validating  acc: 0.766323024055 p: 0.864341085271 r: 0.766323024055 f1: 0.812386156648
new best score
Testing  acc: 0.785714285714 p: 0.790419161677 r: 0.785714285714 f1: 0.788059701493

train lr0.0010000000475 decay: 0.0
Validating  acc: 0.752577319588 p: 0.869047619048 r: 0.752577319588 f1: 0.806629834254
Testing  acc: 0.764880952381 p: 0.790769230769 r: 0.764880952381 f1: 0.7776096823

train lr0.0010000000475 decay: 0.0
Validating  acc: 0.701030927835 p: 0.894736842105 r: 0.701030927835 f1: 0.78612716763
Testing  acc: 0.732142857143 p: 0.82 r: 0.732142857143 f1: 0.77358490566

train lr0.0010000000475 decay: 0.0
Validating  acc: 0.676975945017 p: 0.920560747664 r: 0.676975945017 f1: 0.780198019802
Testing  acc: 0.696428571429 p: 0.85401459854 r: 0.696428571429 f1: 0.767213114754

train lr0.0010000000475 decay: 0.0
Validating  acc: 0.701030927835 p: 0.910714285714 r: 0.701030927835 f1: 0.792233009709
Testing  acc: 0.72619047619 p: 0.835616438356 r: 0.72619047619 f1: 0.777070063694

train lr0.0010000000475 decay: 0.0
Validating  acc: 0.6735395189 p: 0.911627906977 r: 0.6735395189 f1: 0.774703557312
Testing  acc: 0.699404761905 p: 0.84229390681 r: 0.699404761905 f1: 0.764227642276

train lr0.0010000000475 decay: 0.0
Validating  acc: 0.687285223368 p: 0.917431192661 r: 0.687285223368 f1: 0.785854616896
Testing  acc: 0.699404761905 p: 0.827464788732 r: 0.699404761905 f1: 0.758064516129

train lr0.0010000000475 decay: 0.0
Validating  acc: 0.642611683849 p: 0.925742574257 r: 0.642611683849 f1: 0.758620689655
Testing  acc: 0.6875 p: 0.830935251799 r: 0.6875 f1: 0.752442996743

train lr0.0010000000475 decay: 0.0
Validating  acc: 0.621993127148 p: 0.928205128205 r: 0.621993127148 f1: 0.744855967078
early stopping
