train lr0.0010000000475 decay: 0.0
Validating  acc: 0.580756013746 p: 0.775229357798 r: 0.580756013746 f1: 0.664047151277
new best score!
Testing  acc: 0.547619047619 p: 0.744939271255 r: 0.547619047619 f1: 0.631217838765

train lr0.0010000000475 decay: 0.0
Validating  acc: 0.670103092784 p: 0.74427480916 r: 0.670103092784 f1: 0.705244122966
new best score!
Testing  acc: 0.627976190476 p: 0.708053691275 r: 0.627976190476 f1: 0.665615141956

train lr0.0010000000475 decay: 0.0
Validating  acc: 0.707903780069 p: 0.762962962963 r: 0.707903780069 f1: 0.73440285205
new best score!
Testing  acc: 0.6875 p: 0.728706624606 r: 0.6875 f1: 0.707503828484

train lr0.0010000000475 decay: 0.0
Validating  acc: 0.704467353952 p: 0.826612903226 r: 0.704467353952 f1: 0.760667903525
new best score!
Testing  acc: 0.6875 p: 0.785714285714 r: 0.6875 f1: 0.733333333333

train lr0.0010000000475 decay: 0.0
Validating  acc: 0.707903780069 p: 0.81746031746 r: 0.707903780069 f1: 0.758747697974
Testing  acc: 0.681547619048 p: 0.773648648649 r: 0.681547619048 f1: 0.724683544304

train lr0.0010000000475 decay: 0.0
Validating  acc: 0.72852233677 p: 0.809160305344 r: 0.72852233677 f1: 0.766726943942
new best score!
Testing  acc: 0.723214285714 p: 0.757009345794 r: 0.723214285714 f1: 0.739726027397

train lr0.0010000000475 decay: 0.0
Validating  acc: 0.731958762887 p: 0.785977859779 r: 0.731958762887 f1: 0.758007117438
Testing  acc: 0.735119047619 p: 0.750759878419 r: 0.735119047619 f1: 0.742857142857

train lr0.0010000000475 decay: 0.0
Validating  acc: 0.697594501718 p: 0.828571428571 r: 0.697594501718 f1: 0.757462686567
Testing  acc: 0.672619047619 p: 0.801418439716 r: 0.672619047619 f1: 0.731391585761

train lr0.0010000000475 decay: 0.0
Validating  acc: 0.718213058419 p: 0.791666666667 r: 0.718213058419 f1: 0.753153153153
Testing  acc: 0.717261904762 p: 0.779935275081 r: 0.717261904762 f1: 0.747286821705

train lr0.0010000000475 decay: 0.0
Validating  acc: 0.721649484536 p: 0.760869565217 r: 0.721649484536 f1: 0.740740740741
Testing  acc: 0.714285714286 p: 0.766773162939 r: 0.714285714286 f1: 0.739599383667

train lr0.0010000000475 decay: 0.0
Validating  acc: 0.72852233677 p: 0.759856630824 r: 0.72852233677 f1: 0.743859649123
early stopping
