train lr0.0010000000475 decay: 0.0
Validating  acc: 0.845679012346 p: 0.817910447761 r: 0.845679012346 f1: 0.831562974203
new best score
Testing  acc: 0.844380403458 p: 0.851744186047 r: 0.844380403458 f1: 0.848046309696

train lr0.0010000000475 decay: 0.0
Validating  acc: 0.854938271605 p: 0.836858006042 r: 0.854938271605 f1: 0.845801526718
new best score
Testing  acc: 0.850144092219 p: 0.860058309038 r: 0.850144092219 f1: 0.855072463768

train lr0.0010000000475 decay: 0.0
Validating  acc: 0.864197530864 p: 0.861538461538 r: 0.864197530864 f1: 0.862865947612
new best score
Testing  acc: 0.861671469741 p: 0.876832844575 r: 0.861671469741 f1: 0.869186046512

train lr0.0010000000475 decay: 0.0
Validating  acc: 0.898148148148 p: 0.836206896552 r: 0.898148148148 f1: 0.866071428571
new best score
Testing  acc: 0.873198847262 p: 0.85835694051 r: 0.873198847262 f1: 0.865714285714

train lr0.0010000000475 decay: 0.0
Validating  acc: 0.882716049383 p: 0.853731343284 r: 0.882716049383 f1: 0.867981790592
new best score
Testing  acc: 0.870317002882 p: 0.872832369942 r: 0.870317002882 f1: 0.871572871573

train lr0.0010000000475 decay: 0.0
Validating  acc: 0.873456790123 p: 0.862804878049 r: 0.873456790123 f1: 0.868098159509
new best score
Testing  acc: 0.867435158501 p: 0.88790560472 r: 0.867435158501 f1: 0.877551020408

train lr0.0010000000475 decay: 0.0
Validating  acc: 0.854938271605 p: 0.8738170347 r: 0.854938271605 f1: 0.864274570983
Testing  acc: 0.841498559078 p: 0.892966360856 r: 0.841498559078 f1: 0.86646884273

train lr0.0010000000475 decay: 0.0
Validating  acc: 0.87962962963 p: 0.866261398176 r: 0.87962962963 f1: 0.872894333844
new best score
Testing  acc: 0.864553314121 p: 0.882352941176 r: 0.864553314121 f1: 0.873362445415

train lr0.0010000000475 decay: 0.0
Validating  acc: 0.87962962963 p: 0.861027190332 r: 0.87962962963 f1: 0.870229007634
Testing  acc: 0.867435158501 p: 0.877551020408 r: 0.867435158501 f1: 0.872463768116

train lr0.0010000000475 decay: 0.0
Validating  acc: 0.895061728395 p: 0.852941176471 r: 0.895061728395 f1: 0.873493975904
new best score
Testing  acc: 0.884726224784 p: 0.867231638418 r: 0.884726224784 f1: 0.875891583452

train lr0.0010000000475 decay: 0.0
Validating  acc: 0.91049382716 p: 0.842857142857 r: 0.91049382716 f1: 0.875370919881
new best score
Testing  acc: 0.890489913545 p: 0.885386819484 r: 0.890489913545 f1: 0.887931034483

train lr0.0010000000475 decay: 0.0
Validating  acc: 0.87962962963 p: 0.850746268657 r: 0.87962962963 f1: 0.864946889226
Testing  acc: 0.85590778098 p: 0.881305637982 r: 0.85590778098 f1: 0.868421052632

train lr0.0010000000475 decay: 0.0
Validating  acc: 0.87037037037 p: 0.87037037037 r: 0.87037037037 f1: 0.87037037037
Testing  acc: 0.85590778098 p: 0.883928571429 r: 0.85590778098 f1: 0.869692532943

train lr0.0010000000475 decay: 0.0
Validating  acc: 0.858024691358 p: 0.871473354232 r: 0.858024691358 f1: 0.864696734059
Testing  acc: 0.85590778098 p: 0.889221556886 r: 0.85590778098 f1: 0.872246696035

train lr0.0010000000475 decay: 0.0
Validating  acc: 0.888888888889 p: 0.857142857143 r: 0.888888888889 f1: 0.872727272727
Testing  acc: 0.867435158501 p: 0.875 r: 0.867435158501 f1: 0.871201157742

train lr0.0010000000475 decay: 0.0
Validating  acc: 0.888888888889 p: 0.839650145773 r: 0.888888888889 f1: 0.863568215892
early stopping
