train lr0.0010000000475 decay: 0.0
Validating  acc: 0.00675675675676 p: 1.0 r: 0.00675675675676 f1: 0.0134228187919
new best score
Testing  acc: 0.0111111111111 p: 1.0 r: 0.0111111111111 f1: 0.021978021978

train lr0.0010000000475 decay: 0.0
Validating  acc: 0.0101351351351 p: 1.0 r: 0.0101351351351 f1: 0.0200668896321
new best score
Testing  acc: 0.0222222222222 p: 0.857142857143 r: 0.0222222222222 f1: 0.043321299639

train lr0.0010000000475 decay: 0.0
Validating  acc: 0.0202702702703 p: 1.0 r: 0.0202702702703 f1: 0.0397350993377
new best score
Testing  acc: 0.0259259259259 p: 0.875 r: 0.0259259259259 f1: 0.0503597122302

train lr0.0010000000475 decay: 0.0
Validating  acc: 0.0236486486486 p: 0.7 r: 0.0236486486486 f1: 0.0457516339869
new best score
Testing  acc: 0.0444444444444 p: 0.923076923077 r: 0.0444444444444 f1: 0.0848056537102

train lr0.0010000000475 decay: 0.0
Validating  acc: 0.0304054054054 p: 0.642857142857 r: 0.0304054054054 f1: 0.058064516129
new best score
Testing  acc: 0.0814814814815 p: 0.814814814815 r: 0.0814814814815 f1: 0.148148148148

train lr0.0010000000475 decay: 0.0
Validating  acc: 0.0540540540541 p: 0.615384615385 r: 0.0540540540541 f1: 0.0993788819876
new best score
Testing  acc: 0.103703703704 p: 0.848484848485 r: 0.103703703704 f1: 0.184818481848

train lr0.0010000000475 decay: 0.0
Validating  acc: 0.0574324324324 p: 0.566666666667 r: 0.0574324324324 f1: 0.104294478528
new best score
Testing  acc: 0.122222222222 p: 0.825 r: 0.122222222222 f1: 0.212903225806

train lr0.0010000000475 decay: 0.0
Validating  acc: 0.0709459459459 p: 0.617647058824 r: 0.0709459459459 f1: 0.127272727273
new best score
Testing  acc: 0.133333333333 p: 0.837209302326 r: 0.133333333333 f1: 0.230031948882

train lr0.0010000000475 decay: 0.0
Validating  acc: 0.0810810810811 p: 0.648648648649 r: 0.0810810810811 f1: 0.144144144144
new best score
Testing  acc: 0.137037037037 p: 0.804347826087 r: 0.137037037037 f1: 0.23417721519

train lr0.0010000000475 decay: 0.0
Validating  acc: 0.10472972973 p: 0.673913043478 r: 0.10472972973 f1: 0.181286549708
new best score
Testing  acc: 0.148148148148 p: 0.714285714286 r: 0.148148148148 f1: 0.245398773006

train lr0.0010000000475 decay: 0.0
Validating  acc: 0.152027027027 p: 0.661764705882 r: 0.152027027027 f1: 0.247252747253
new best score
Testing  acc: 0.17037037037 p: 0.707692307692 r: 0.17037037037 f1: 0.274626865672

train lr0.0010000000475 decay: 0.0
Validating  acc: 0.172297297297 p: 0.614457831325 r: 0.172297297297 f1: 0.269129287599
new best score
Testing  acc: 0.211111111111 p: 0.69512195122 r: 0.211111111111 f1: 0.323863636364

train lr0.0010000000475 decay: 0.0
Validating  acc: 0.206081081081 p: 0.60396039604 r: 0.206081081081 f1: 0.307304785894
new best score
Testing  acc: 0.248148148148 p: 0.697916666667 r: 0.248148148148 f1: 0.366120218579

train lr0.0010000000475 decay: 0.0
Validating  acc: 0.361486486486 p: 0.563157894737 r: 0.361486486486 f1: 0.440329218107
new best score
Testing  acc: 0.407407407407 p: 0.569948186528 r: 0.407407407407 f1: 0.475161987041

train lr0.0010000000475 decay: 0.0
Validating  acc: 0.199324324324 p: 0.59595959596 r: 0.199324324324 f1: 0.298734177215
Testing  acc: 0.259259259259 p: 0.752688172043 r: 0.259259259259 f1: 0.385674931129

train lr0.0010000000475 decay: 0.0
Validating  acc: 0.253378378378 p: 0.6 r: 0.253378378378 f1: 0.356294536817
Testing  acc: 0.32962962963 p: 0.717741935484 r: 0.32962962963 f1: 0.451776649746

train lr0.0010000000475 decay: 0.0
Validating  acc: 0.27027027027 p: 0.601503759398 r: 0.27027027027 f1: 0.37296037296
Testing  acc: 0.348148148148 p: 0.717557251908 r: 0.348148148148 f1: 0.468827930175

train lr0.0010000000475 decay: 0.0
Validating  acc: 0.337837837838 p: 0.606060606061 r: 0.337837837838 f1: 0.433839479393
Testing  acc: 0.392592592593 p: 0.658385093168 r: 0.392592592593 f1: 0.491879350348

train lr0.0010000000475 decay: 0.0
Validating  acc: 0.381756756757 p: 0.60752688172 r: 0.381756756757 f1: 0.46887966805
new best score
Testing  acc: 0.433333333333 p: 0.629032258065 r: 0.433333333333 f1: 0.513157894737

train lr0.0010000000475 decay: 0.0
Validating  acc: 0.408783783784 p: 0.626943005181 r: 0.408783783784 f1: 0.494887525562
new best score
Testing  acc: 0.466666666667 p: 0.636363636364 r: 0.466666666667 f1: 0.538461538462

train lr0.0010000000475 decay: 0.0
Validating  acc: 0.435810810811 p: 0.623188405797 r: 0.435810810811 f1: 0.512922465209
new best score
Testing  acc: 0.492592592593 p: 0.633333333333 r: 0.492592592593 f1: 0.554166666667

train lr0.0010000000475 decay: 0.0
Validating  acc: 0.442567567568 p: 0.642156862745 r: 0.442567567568 f1: 0.524
new best score
Testing  acc: 0.481481481481 p: 0.666666666667 r: 0.481481481481 f1: 0.559139784946

train lr0.0010000000475 decay: 0.0
Validating  acc: 0.47972972973 p: 0.636771300448 r: 0.47972972973 f1: 0.547206165703
new best score
Testing  acc: 0.511111111111 p: 0.657142857143 r: 0.511111111111 f1: 0.575

train lr0.0010000000475 decay: 0.0
Validating  acc: 0.513513513514 p: 0.652360515021 r: 0.513513513514 f1: 0.574669187146
new best score
Testing  acc: 0.52962962963 p: 0.647058823529 r: 0.52962962963 f1: 0.582484725051

train lr0.0010000000475 decay: 0.0
Validating  acc: 0.510135135135 p: 0.671111111111 r: 0.510135135135 f1: 0.579654510557
new best score
Testing  acc: 0.511111111111 p: 0.686567164179 r: 0.511111111111 f1: 0.585987261146

train lr0.0010000000475 decay: 0.0
Validating  acc: 0.533783783784 p: 0.672340425532 r: 0.533783783784 f1: 0.595103578154
new best score
Testing  acc: 0.559259259259 p: 0.677130044843 r: 0.559259259259 f1: 0.612576064909

train lr0.0010000000475 decay: 0.0
Validating  acc: 0.543918918919 p: 0.673640167364 r: 0.543918918919 f1: 0.601869158879
new best score
Testing  acc: 0.577777777778 p: 0.678260869565 r: 0.577777777778 f1: 0.624

train lr0.0010000000475 decay: 0.0
Validating  acc: 0.540540540541 p: 0.689655172414 r: 0.540540540541 f1: 0.606060606061
new best score
Testing  acc: 0.574074074074 p: 0.676855895197 r: 0.574074074074 f1: 0.62124248497

train lr0.0010000000475 decay: 0.0
Validating  acc: 0.564189189189 p: 0.701680672269 r: 0.564189189189 f1: 0.625468164794
new best score
Testing  acc: 0.6 p: 0.672199170124 r: 0.6 f1: 0.634050880626

train lr0.0010000000475 decay: 0.0
Validating  acc: 0.584459459459 p: 0.711934156379 r: 0.584459459459 f1: 0.641929499072
new best score
Testing  acc: 0.611111111111 p: 0.665322580645 r: 0.611111111111 f1: 0.637065637066

