train lr0.0010000000474974513 decay: 0.0
Validating  acc: 0.7191358024691358 p: 0.728125 r: 0.7191358024691358 f1: 0.7236024844720498
new best score
Testing  acc: 0.7492795389048992 p: 0.7558139534883721 r: 0.7492795389048992 f1: 0.7525325615050652

train lr0.0010000000474974513 decay: 0.0
Validating  acc: 0.7530864197530864 p: 0.7416413373860182 r: 0.7530864197530864 f1: 0.7473200612557427
new best score
Testing  acc: 0.7780979827089337 p: 0.7692307692307693 r: 0.7780979827089337 f1: 0.7736389684813754

train lr0.0010000000474974513 decay: 0.0
Validating  acc: 0.7746913580246914 p: 0.7492537313432835 r: 0.7746913580246914 f1: 0.7617602427921092
new best score
Testing  acc: 0.7867435158501441 p: 0.7844827586206896 r: 0.7867435158501441 f1: 0.7856115107913668

train lr0.0010000000474974513 decay: 0.0
Validating  acc: 0.7932098765432098 p: 0.7363896848137536 r: 0.7932098765432098 f1: 0.763744427934621
new best score
Testing  acc: 0.8097982708933718 p: 0.7849162011173184 r: 0.8097982708933718 f1: 0.7971631205673758

train lr0.0010000000474974513 decay: 0.0
Validating  acc: 0.7932098765432098 p: 0.749271137026239 r: 0.7932098765432098 f1: 0.7706146926536731
new best score
Testing  acc: 0.8069164265129684 p: 0.7977207977207977 r: 0.8069164265129684 f1: 0.8022922636103152

train lr0.0010000000474974513 decay: 0.0
Validating  acc: 0.7808641975308642 p: 0.7737003058103975 r: 0.7808641975308642 f1: 0.7772657450076805
new best score
Testing  acc: 0.792507204610951 p: 0.7994186046511628 r: 0.792507204610951 f1: 0.7959479015918958

train lr0.0010000000474974513 decay: 0.0
Validating  acc: 0.7932098765432098 p: 0.7626112759643917 r: 0.7932098765432098 f1: 0.7776096822995462
new best score
Testing  acc: 0.8069164265129684 p: 0.8 r: 0.8069164265129684 f1: 0.8034433285509326

train lr0.0010000000474974513 decay: 0.0
Validating  acc: 0.7808641975308642 p: 0.7784615384615384 r: 0.7808641975308642 f1: 0.7796610169491526
new best score
Testing  acc: 0.8155619596541787 p: 0.8039772727272727 r: 0.8155619596541787 f1: 0.809728183118741

train lr0.0010000000474974513 decay: 0.0
Validating  acc: 0.8024691358024691 p: 0.7602339181286549 r: 0.8024691358024691 f1: 0.7807807807807808
new best score
Testing  acc: 0.8414985590778098 p: 0.8044077134986226 r: 0.8414985590778098 f1: 0.8225352112676056

train lr0.0010000000474974513 decay: 0.0
Validating  acc: 0.7746913580246914 p: 0.7943037974683544 r: 0.7746913580246914 f1: 0.784375
new best score
Testing  acc: 0.8011527377521613 p: 0.8176470588235294 r: 0.8011527377521613 f1: 0.809315866084425

train lr0.0010000000474974513 decay: 0.0
Validating  acc: 0.7654320987654321 p: 0.7948717948717948 r: 0.7654320987654321 f1: 0.7798742138364779
Testing  acc: 0.7982708933717579 p: 0.8099415204678363 r: 0.7982708933717579 f1: 0.8040638606676344

train lr0.0010000000474974513 decay: 0.0
Validating  acc: 0.7561728395061729 p: 0.7980456026058632 r: 0.7561728395061729 f1: 0.7765451664025357
Testing  acc: 0.7896253602305475 p: 0.8154761904761905 r: 0.7896253602305475 f1: 0.8023426061493412

train lr0.0010000000474974513 decay: 0.0
Validating  acc: 0.7685185185185185 p: 0.780564263322884 r: 0.7685185185185185 f1: 0.7744945567651632
Testing  acc: 0.8155619596541787 p: 0.8250728862973761 r: 0.8155619596541787 f1: 0.8202898550724637

train lr0.0010000000474974513 decay: 0.0
Validating  acc: 0.7932098765432098 p: 0.7603550295857988 r: 0.7932098765432098 f1: 0.7764350453172205
Testing  acc: 0.8386167146974063 p: 0.8016528925619835 r: 0.8386167146974063 f1: 0.819718309859155

train lr0.0010000000474974513 decay: 0.0
Validating  acc: 0.7530864197530864 p: 0.8133333333333334 r: 0.7530864197530864 f1: 0.782051282051282
Testing  acc: 0.7896253602305475 p: 0.8328267477203647 r: 0.7896253602305475 f1: 0.8106508875739645

train lr0.0010000000474974513 decay: 0.0
Validating  acc: 0.7376543209876543 p: 0.7993311036789298 r: 0.7376543209876543 f1: 0.7672552166934188
early stopping
