train lr0.0010000000475 decay: 0.0
Validating  acc: 0.0 p: 0 r: 0.0 f1: 0
Testing  acc: 0.0 p: 0 r: 0.0 f1: 0

train lr0.0010000000475 decay: 0.0
Validating  acc: 0.0 p: 0 r: 0.0 f1: 0
Testing  acc: 0.0 p: 0 r: 0.0 f1: 0

train lr0.0010000000475 decay: 0.0
Validating  acc: 0.0 p: 0 r: 0.0 f1: 0
Testing  acc: 0.0 p: 0 r: 0.0 f1: 0

train lr0.0010000000475 decay: 0.0
Validating  acc: 0.0 p: 0 r: 0.0 f1: 0
Testing  acc: 0.0 p: 0 r: 0.0 f1: 0

train lr0.0010000000475 decay: 0.0
Validating  acc: 0.0 p: 0 r: 0.0 f1: 0
Testing  acc: 0.0 p: 0 r: 0.0 f1: 0

train lr0.0010000000475 decay: 0.0
Validating  acc: 0.0 p: 0 r: 0.0 f1: 0
Testing  acc: 0.0 p: 0 r: 0.0 f1: 0

train lr0.0010000000475 decay: 0.0
Validating  acc: 0.0 p: 0 r: 0.0 f1: 0
Testing  acc: 0.0 p: 0 r: 0.0 f1: 0

train lr0.0010000000475 decay: 0.0
Validating  acc: 0.0 p: 0 r: 0.0 f1: 0
early stopping
