train lr0.0010000000475 decay: 0.0
Validating  acc: 0.714776632302 p: 0.8125 r: 0.714776632302 f1: 0.760511882998
new best score
Testing  acc: 0.764880952381 p: 0.805642633229 r: 0.764880952381 f1: 0.784732824427

