train lr0.0010000000475 decay: 0.0
Validating  acc: 0.774691358025 p: 0.747023809524 r: 0.774691358025 f1: 0.760606060606
new best score
Testing  acc: 0.763688760807 p: 0.777126099707 r: 0.763688760807 f1: 0.770348837209

train lr0.0010000000475 decay: 0.0
Validating  acc: 0.864197530864 p: 0.78431372549 r: 0.864197530864 f1: 0.822320117474
new best score
Testing  acc: 0.844380403458 p: 0.807162534435 r: 0.844380403458 f1: 0.825352112676

train lr0.0010000000475 decay: 0.0
Validating  acc: 0.882716049383 p: 0.792243767313 r: 0.882716049383 f1: 0.83503649635
new best score
Testing  acc: 0.873198847262 p: 0.816711590296 r: 0.873198847262 f1: 0.844011142061

train lr0.0010000000475 decay: 0.0
Validating  acc: 0.87962962963 p: 0.796089385475 r: 0.87962962963 f1: 0.8357771261
new best score
Testing  acc: 0.881844380403 p: 0.824797843666 r: 0.881844380403 f1: 0.852367688022

train lr0.0010000000475 decay: 0.0
Validating  acc: 0.867283950617 p: 0.80056980057 r: 0.867283950617 f1: 0.832592592593
Testing  acc: 0.881844380403 p: 0.824797843666 r: 0.881844380403 f1: 0.852367688022

train lr0.0010000000475 decay: 0.0
Validating  acc: 0.867283950617 p: 0.802857142857 r: 0.867283950617 f1: 0.833827893175
Testing  acc: 0.876080691643 p: 0.832876712329 r: 0.876080691643 f1: 0.85393258427

train lr0.0010000000475 decay: 0.0
Validating  acc: 0.87037037037 p: 0.810344827586 r: 0.87037037037 f1: 0.839285714286
new best score
Testing  acc: 0.878962536023 p: 0.835616438356 r: 0.878962536023 f1: 0.856741573034

train lr0.0010000000475 decay: 0.0
Validating  acc: 0.87962962963 p: 0.805084745763 r: 0.87962962963 f1: 0.840707964602
new best score
Testing  acc: 0.881844380403 p: 0.83606557377 r: 0.881844380403 f1: 0.858345021038

train lr0.0010000000475 decay: 0.0
Validating  acc: 0.882716049383 p: 0.810198300283 r: 0.882716049383 f1: 0.844903988183
new best score
Testing  acc: 0.881844380403 p: 0.83378746594 r: 0.881844380403 f1: 0.857142857143

train lr0.0010000000475 decay: 0.0
Validating  acc: 0.876543209877 p: 0.811428571429 r: 0.876543209877 f1: 0.842729970326
Testing  acc: 0.878962536023 p: 0.833333333333 r: 0.878962536023 f1: 0.85553997195

train lr0.0010000000475 decay: 0.0
Validating  acc: 0.882716049383 p: 0.82183908046 r: 0.882716049383 f1: 0.85119047619
new best score
Testing  acc: 0.867435158501 p: 0.838440111421 r: 0.867435158501 f1: 0.85269121813

train lr0.0010000000475 decay: 0.0
Validating  acc: 0.864197530864 p: 0.825958702065 r: 0.864197530864 f1: 0.844645550528
Testing  acc: 0.864553314121 p: 0.854700854701 r: 0.864553314121 f1: 0.859598853868

train lr0.0010000000475 decay: 0.0
Validating  acc: 0.864197530864 p: 0.830860534125 r: 0.864197530864 f1: 0.847201210287
Testing  acc: 0.876080691643 p: 0.851540616246 r: 0.876080691643 f1: 0.863636363636

train lr0.0010000000475 decay: 0.0
Validating  acc: 0.851851851852 p: 0.833836858006 r: 0.851851851852 f1: 0.842748091603
Testing  acc: 0.864553314121 p: 0.874635568513 r: 0.864553314121 f1: 0.869565217391

train lr0.0010000000475 decay: 0.0
Validating  acc: 0.854938271605 p: 0.829341317365 r: 0.854938271605 f1: 0.841945288754
Testing  acc: 0.870317002882 p: 0.865329512894 r: 0.870317002882 f1: 0.867816091954

train lr0.0010000000475 decay: 0.0
Validating  acc: 0.867283950617 p: 0.83630952381 r: 0.867283950617 f1: 0.851515151515
new best score
Testing  acc: 0.867435158501 p: 0.877551020408 r: 0.867435158501 f1: 0.872463768116

train lr0.0010000000475 decay: 0.0
Validating  acc: 0.854938271605 p: 0.839393939394 r: 0.854938271605 f1: 0.847094801223
Testing  acc: 0.864553314121 p: 0.884955752212 r: 0.864553314121 f1: 0.874635568513

