train lr0.0010000000474974513 decay: 0.0
Validating  acc: 0.44329896907216493 p: 0.8113207547169812 r: 0.44329896907216493 f1: 0.5733333333333333
new best score
Testing  acc: 0.5892857142857143 p: 0.8048780487804879 r: 0.5892857142857143 f1: 0.6804123711340206

train lr0.0010000000474974513 decay: 0.0
Validating  acc: 0.5360824742268041 p: 0.8082901554404145 r: 0.5360824742268041 f1: 0.6446280991735536
new best score
Testing  acc: 0.6547619047619048 p: 0.7801418439716312 r: 0.6547619047619048 f1: 0.7119741100323626

train lr0.0010000000474974513 decay: 0.0
Validating  acc: 0.5738831615120275 p: 0.7990430622009569 r: 0.5738831615120275 f1: 0.668
new best score
Testing  acc: 0.6636904761904762 p: 0.7770034843205574 r: 0.6636904761904762 f1: 0.7158908507223114

train lr0.0010000000474974513 decay: 0.0
Validating  acc: 0.6219931271477663 p: 0.7605042016806722 r: 0.6219931271477663 f1: 0.6843100189035917
new best score
Testing  acc: 0.7142857142857143 p: 0.7476635514018691 r: 0.7142857142857143 f1: 0.730593607305936

train lr0.0010000000474974513 decay: 0.0
Validating  acc: 0.6494845360824743 p: 0.7682926829268293 r: 0.6494845360824743 f1: 0.7039106145251396
new best score
Testing  acc: 0.7321428571428571 p: 0.7321428571428571 r: 0.7321428571428571 f1: 0.7321428571428571

train lr0.0010000000474974513 decay: 0.0
Validating  acc: 0.6254295532646048 p: 0.774468085106383 r: 0.6254295532646048 f1: 0.6920152091254753
Testing  acc: 0.7232142857142857 p: 0.7147058823529412 r: 0.7232142857142857 f1: 0.7189349112426036

train lr0.0010000000474974513 decay: 0.0
Validating  acc: 0.6426116838487973 p: 0.7540322580645161 r: 0.6426116838487973 f1: 0.6938775510204082
Testing  acc: 0.7440476190476191 p: 0.7183908045977011 r: 0.7440476190476191 f1: 0.7309941520467835

train lr0.0010000000474974513 decay: 0.0
Validating  acc: 0.6838487972508591 p: 0.7316176470588235 r: 0.6838487972508591 f1: 0.7069271758436945
new best score
Testing  acc: 0.7648809523809523 p: 0.7002724795640327 r: 0.7648809523809523 f1: 0.7311522048364153

train lr0.0010000000474974513 decay: 0.0
Validating  acc: 0.6288659793814433 p: 0.7408906882591093 r: 0.6288659793814433 f1: 0.6802973977695167
Testing  acc: 0.7291666666666666 p: 0.7248520710059172 r: 0.7291666666666666 f1: 0.7270029673590503

train lr0.0010000000474974513 decay: 0.0
Validating  acc: 0.6563573883161512 p: 0.7346153846153847 r: 0.6563573883161512 f1: 0.6932849364791289
Testing  acc: 0.7648809523809523 p: 0.7079889807162535 r: 0.7648809523809523 f1: 0.7353361945636623

train lr0.0010000000474974513 decay: 0.0
Validating  acc: 0.6426116838487973 p: 0.7362204724409449 r: 0.6426116838487973 f1: 0.6862385321100918
early stopping
