train lr0.0010000000475 decay: 0.0
Validating  acc: 0.754310344828 p: 0.837320574163 r: 0.754310344828 f1: 0.793650793651
new best score
Testing  acc: 0.758333333333 p: 0.842592592593 r: 0.758333333333 f1: 0.798245614035

train lr0.0010000000475 decay: 0.0
Validating  acc: 0.711206896552 p: 0.896739130435 r: 0.711206896552 f1: 0.793269230769
Testing  acc: 0.679166666667 p: 0.91061452514 r: 0.679166666667 f1: 0.778042959427

train lr0.0010000000475 decay: 0.0
Validating  acc: 0.75 p: 0.857142857143 r: 0.75 f1: 0.8
new best score
Testing  acc: 0.720833333333 p: 0.869346733668 r: 0.720833333333 f1: 0.788154897494

train lr0.0010000000475 decay: 0.0
Validating  acc: 0.827586206897 p: 0.820512820513 r: 0.827586206897 f1: 0.824034334764
new best score
Testing  acc: 0.829166666667 p: 0.815573770492 r: 0.829166666667 f1: 0.822314049587

train lr0.0010000000475 decay: 0.0
Validating  acc: 0.870689655172 p: 0.739926739927 r: 0.870689655172 f1: 0.8
Testing  acc: 0.854166666667 p: 0.729537366548 r: 0.854166666667 f1: 0.786948176583

train lr0.0010000000475 decay: 0.0
Validating  acc: 0.896551724138 p: 0.652037617555 r: 0.896551724138 f1: 0.75499092559
Testing  acc: 0.8875 p: 0.669811320755 r: 0.8875 f1: 0.763440860215

train lr0.0010000000475 decay: 0.0
Validating  acc: 0.879310344828 p: 0.691525423729 r: 0.879310344828 f1: 0.774193548387
Testing  acc: 0.879166666667 p: 0.698675496689 r: 0.879166666667 f1: 0.778597785978

train lr0.0010000000475 decay: 0.0
Validating  acc: 0.853448275862 p: 0.758620689655 r: 0.853448275862 f1: 0.803245436105
Testing  acc: 0.858333333333 p: 0.768656716418 r: 0.858333333333 f1: 0.811023622047

train lr0.0010000000475 decay: 0.0
Validating  acc: 0.883620689655 p: 0.669934640523 r: 0.883620689655 f1: 0.762081784387
Testing  acc: 0.8875 p: 0.671924290221 r: 0.8875 f1: 0.764811490126

train lr0.0010000000475 decay: 0.0
Validating  acc: 0.866379310345 p: 0.741697416974 r: 0.866379310345 f1: 0.799204771372
Testing  acc: 0.866666666667 p: 0.732394366197 r: 0.866666666667 f1: 0.793893129771

train lr0.0010000000475 decay: 0.0
Validating  acc: 0.875 p: 0.702422145329 r: 0.875 f1: 0.779270633397
Testing  acc: 0.891666666667 p: 0.703947368421 r: 0.891666666667 f1: 0.786764705882

train lr0.0010000000475 decay: 0.0
Validating  acc: 0.836206896552 p: 0.81512605042 r: 0.836206896552 f1: 0.825531914894
new best score
Testing  acc: 0.820833333333 p: 0.788 r: 0.820833333333 f1: 0.804081632653

train lr0.0010000000475 decay: 0.0
Validating  acc: 0.793103448276 p: 0.855813953488 r: 0.793103448276 f1: 0.823266219239
Testing  acc: 0.783333333333 p: 0.828193832599 r: 0.783333333333 f1: 0.805139186296

train lr0.0010000000475 decay: 0.0
Validating  acc: 0.762931034483 p: 0.863414634146 r: 0.762931034483 f1: 0.810068649886
Testing  acc: 0.7625 p: 0.851162790698 r: 0.7625 f1: 0.804395604396

train lr0.0010000000475 decay: 0.0
Validating  acc: 0.806034482759 p: 0.827433628319 r: 0.806034482759 f1: 0.816593886463
Testing  acc: 0.820833333333 p: 0.80737704918 r: 0.820833333333 f1: 0.814049586777

train lr0.0010000000475 decay: 0.0
Validating  acc: 0.823275862069 p: 0.809322033898 r: 0.823275862069 f1: 0.816239316239
Testing  acc: 0.841666666667 p: 0.7890625 r: 0.841666666667 f1: 0.814516129032

train lr0.0010000000475 decay: 0.0
Validating  acc: 0.775862068966 p: 0.85308056872 r: 0.775862068966 f1: 0.812641083521
Testing  acc: 0.766666666667 p: 0.847926267281 r: 0.766666666667 f1: 0.805251641138

train lr0.0010000000475 decay: 0.0
Validating  acc: 0.827586206897 p: 0.741312741313 r: 0.827586206897 f1: 0.782077393075
Testing  acc: 0.8625 p: 0.699324324324 r: 0.8625 f1: 0.772388059701

train lr0.0010000000475 decay: 0.0
Validating  acc: 0.793103448276 p: 0.847926267281 r: 0.793103448276 f1: 0.819599109131
Testing  acc: 0.770833333333 p: 0.804347826087 r: 0.770833333333 f1: 0.787234042553

train lr0.0010000000475 decay: 0.0
Validating  acc: 0.775862068966 p: 0.865384615385 r: 0.775862068966 f1: 0.818181818182
early stopping
