train lr0.0010000000475 decay: 0.0
Validating  acc: 0.0 p: 0.0 r: 0.0 f1: 0
new best score
Testing  acc: 0.0037037037037 p: 0.5 r: 0.0037037037037 f1: 0.00735294117647

train lr0.0010000000475 decay: 0.0
Validating  acc: 0.00337837837838 p: 0.5 r: 0.00337837837838 f1: 0.00671140939597
new best score
Testing  acc: 0.00740740740741 p: 0.285714285714 r: 0.00740740740741 f1: 0.014440433213

train lr0.0010000000475 decay: 0.0
Validating  acc: 0.0472972972973 p: 0.666666666667 r: 0.0472972972973 f1: 0.0883280757098
new best score
Testing  acc: 0.0592592592593 p: 0.64 r: 0.0592592592593 f1: 0.108474576271

train lr0.0010000000475 decay: 0.0
Validating  acc: 0.131756756757 p: 0.6 r: 0.131756756757 f1: 0.216066481994
new best score
Testing  acc: 0.155555555556 p: 0.677419354839 r: 0.155555555556 f1: 0.253012048193

train lr0.0010000000475 decay: 0.0
Validating  acc: 0.287162162162 p: 0.696721311475 r: 0.287162162162 f1: 0.406698564593
new best score
Testing  acc: 0.277777777778 p: 0.675675675676 r: 0.277777777778 f1: 0.393700787402

train lr0.0010000000475 decay: 0.0
Validating  acc: 0.388513513514 p: 0.732484076433 r: 0.388513513514 f1: 0.507726269316
new best score
Testing  acc: 0.392592592593 p: 0.716216216216 r: 0.392592592593 f1: 0.507177033493

train lr0.0010000000475 decay: 0.0
Validating  acc: 0.5 p: 0.770833333333 r: 0.5 f1: 0.606557377049
new best score
Testing  acc: 0.466666666667 p: 0.745562130178 r: 0.466666666667 f1: 0.574031890661

train lr0.0010000000475 decay: 0.0
Validating  acc: 0.523648648649 p: 0.748792270531 r: 0.523648648649 f1: 0.616302186879
new best score
Testing  acc: 0.52962962963 p: 0.748691099476 r: 0.52962962963 f1: 0.620390455531

train lr0.0010000000475 decay: 0.0
Validating  acc: 0.621621621622 p: 0.754098360656 r: 0.621621621622 f1: 0.681481481481
new best score
Testing  acc: 0.614814814815 p: 0.741071428571 r: 0.614814814815 f1: 0.672064777328

train lr0.0010000000475 decay: 0.0
Validating  acc: 0.665540540541 p: 0.766536964981 r: 0.665540540541 f1: 0.712477396022
new best score
Testing  acc: 0.651851851852 p: 0.745762711864 r: 0.651851851852 f1: 0.695652173913

train lr0.0010000000475 decay: 0.0
Validating  acc: 0.709459459459 p: 0.763636363636 r: 0.709459459459 f1: 0.735551663748
new best score
Testing  acc: 0.692592592593 p: 0.760162601626 r: 0.692592592593 f1: 0.72480620155

train lr0.0010000000475 decay: 0.0
Validating  acc: 0.706081081081 p: 0.76 r: 0.706081081081 f1: 0.732049036778
Testing  acc: 0.718518518519 p: 0.75486381323 r: 0.718518518519 f1: 0.73624288425

train lr0.0010000000475 decay: 0.0
Validating  acc: 0.746621621622 p: 0.746621621622 r: 0.746621621622 f1: 0.746621621622
new best score
Testing  acc: 0.737037037037 p: 0.737037037037 r: 0.737037037037 f1: 0.737037037037

train lr0.0010000000475 decay: 0.0
Validating  acc: 0.746621621622 p: 0.746621621622 r: 0.746621621622 f1: 0.746621621622
new best score
Testing  acc: 0.725925925926 p: 0.717948717949 r: 0.725925925926 f1: 0.721915285451

train lr0.0010000000475 decay: 0.0
Validating  acc: 0.753378378378 p: 0.743333333333 r: 0.753378378378 f1: 0.748322147651
new best score
Testing  acc: 0.759259259259 p: 0.719298245614 r: 0.759259259259 f1: 0.738738738739

train lr0.0010000000475 decay: 0.0
Validating  acc: 0.77027027027 p: 0.721518987342 r: 0.77027027027 f1: 0.745098039216
Testing  acc: 0.766666666667 p: 0.711340206186 r: 0.766666666667 f1: 0.737967914439

train lr0.0010000000475 decay: 0.0
Validating  acc: 0.753378378378 p: 0.766323024055 r: 0.753378378378 f1: 0.759795570698
new best score
Testing  acc: 0.755555555556 p: 0.731182795699 r: 0.755555555556 f1: 0.743169398907

train lr0.0010000000475 decay: 0.0
Validating  acc: 0.719594594595 p: 0.783088235294 r: 0.719594594595 f1: 0.75
Testing  acc: 0.72962962963 p: 0.763565891473 r: 0.72962962963 f1: 0.746212121212

train lr0.0010000000475 decay: 0.0
Validating  acc: 0.77027027027 p: 0.728434504792 r: 0.77027027027 f1: 0.748768472906
Testing  acc: 0.777777777778 p: 0.707070707071 r: 0.777777777778 f1: 0.740740740741

train lr0.0010000000475 decay: 0.0
Validating  acc: 0.773648648649 p: 0.687687687688 r: 0.773648648649 f1: 0.72813990461
Testing  acc: 0.77037037037 p: 0.707482993197 r: 0.77037037037 f1: 0.737588652482

train lr0.0010000000475 decay: 0.0
Validating  acc: 0.766891891892 p: 0.756666666667 r: 0.766891891892 f1: 0.761744966443
new best score
Testing  acc: 0.77037037037 p: 0.724738675958 r: 0.77037037037 f1: 0.746858168761

train lr0.0010000000475 decay: 0.0
Validating  acc: 0.760135135135 p: 0.745033112583 r: 0.760135135135 f1: 0.752508361204
Testing  acc: 0.766666666667 p: 0.728873239437 r: 0.766666666667 f1: 0.747292418773

train lr0.0010000000475 decay: 0.0
Validating  acc: 0.77027027027 p: 0.719242902208 r: 0.77027027027 f1: 0.743882544861
Testing  acc: 0.766666666667 p: 0.69 r: 0.766666666667 f1: 0.726315789474

train lr0.0010000000475 decay: 0.0
Validating  acc: 0.756756756757 p: 0.751677852349 r: 0.756756756757 f1: 0.754208754209
Testing  acc: 0.755555555556 p: 0.710801393728 r: 0.755555555556 f1: 0.73249551167

train lr0.0010000000475 decay: 0.0
Validating  acc: 0.736486486486 p: 0.754325259516 r: 0.736486486486 f1: 0.745299145299
Testing  acc: 0.737037037037 p: 0.728937728938 r: 0.737037037037 f1: 0.732965009208

train lr0.0010000000475 decay: 0.0
Validating  acc: 0.712837837838 p: 0.740350877193 r: 0.712837837838 f1: 0.726333907057
early stopping
