train lr0.0010000000475 decay: 0.0
Validating  acc: 0.564814814815 p: 0.6 r: 0.564814814815 f1: 0.581875993641
new best score
Testing  acc: 0.567723342939 p: 0.63961038961 r: 0.567723342939 f1: 0.601526717557

train lr0.0010000000475 decay: 0.0
Validating  acc: 0.561728395062 p: 0.638596491228 r: 0.561728395062 f1: 0.597701149425
new best score
Testing  acc: 0.553314121037 p: 0.678445229682 r: 0.553314121037 f1: 0.609523809524

train lr0.0010000000475 decay: 0.0
Validating  acc: 0.543209876543 p: 0.679536679537 r: 0.543209876543 f1: 0.603773584906
new best score
Testing  acc: 0.550432276657 p: 0.707407407407 r: 0.550432276657 f1: 0.619124797407

train lr0.0010000000475 decay: 0.0
Validating  acc: 0.561728395062 p: 0.68679245283 r: 0.561728395062 f1: 0.617996604414
new best score
Testing  acc: 0.561959654179 p: 0.724907063197 r: 0.561959654179 f1: 0.633116883117

train lr0.0010000000475 decay: 0.0
Validating  acc: 0.604938271605 p: 0.710144927536 r: 0.604938271605 f1: 0.653333333333
new best score
Testing  acc: 0.619596541787 p: 0.746527777778 r: 0.619596541787 f1: 0.677165354331

train lr0.0010000000475 decay: 0.0
Validating  acc: 0.672839506173 p: 0.717105263158 r: 0.672839506173 f1: 0.694267515924
new best score
Testing  acc: 0.671469740634 p: 0.746794871795 r: 0.671469740634 f1: 0.707132018209

train lr0.0010000000475 decay: 0.0
Validating  acc: 0.645061728395 p: 0.73851590106 r: 0.645061728395 f1: 0.68863261944
Testing  acc: 0.651296829971 p: 0.77133105802 r: 0.651296829971 f1: 0.70625

train lr0.0010000000475 decay: 0.0
Validating  acc: 0.623456790123 p: 0.745387453875 r: 0.623456790123 f1: 0.678991596639
Testing  acc: 0.63976945245 p: 0.781690140845 r: 0.63976945245 f1: 0.703645007924

train lr0.0010000000475 decay: 0.0
Validating  acc: 0.706790123457 p: 0.745928338762 r: 0.706790123457 f1: 0.725832012678
new best score
Testing  acc: 0.697406340058 p: 0.775641025641 r: 0.697406340058 f1: 0.734446130501

train lr0.0010000000475 decay: 0.0
Validating  acc: 0.675925925926 p: 0.742372881356 r: 0.675925925926 f1: 0.707592891761
Testing  acc: 0.682997118156 p: 0.782178217822 r: 0.682997118156 f1: 0.729230769231

train lr0.0010000000475 decay: 0.0
Validating  acc: 0.700617283951 p: 0.751655629139 r: 0.700617283951 f1: 0.725239616613
Testing  acc: 0.708933717579 p: 0.785942492013 r: 0.708933717579 f1: 0.745454545455

train lr0.0010000000475 decay: 0.0
Validating  acc: 0.679012345679 p: 0.774647887324 r: 0.679012345679 f1: 0.723684210526
Testing  acc: 0.659942363112 p: 0.786941580756 r: 0.659942363112 f1: 0.717868338558

train lr0.0010000000475 decay: 0.0
Validating  acc: 0.657407407407 p: 0.783088235294 r: 0.657407407407 f1: 0.714765100671
Testing  acc: 0.659942363112 p: 0.795138888889 r: 0.659942363112 f1: 0.72125984252

train lr0.0010000000475 decay: 0.0
Validating  acc: 0.663580246914 p: 0.781818181818 r: 0.663580246914 f1: 0.717863105175
Testing  acc: 0.651296829971 p: 0.795774647887 r: 0.651296829971 f1: 0.716323296355

train lr0.0010000000475 decay: 0.0
Validating  acc: 0.66049382716 p: 0.783882783883 r: 0.66049382716 f1: 0.716917922948
Testing  acc: 0.64265129683 p: 0.799283154122 r: 0.64265129683 f1: 0.712460063898

train lr0.0010000000475 decay: 0.0
Validating  acc: 0.685185185185 p: 0.773519163763 r: 0.685185185185 f1: 0.726677577741
new best score
Testing  acc: 0.700288184438 p: 0.80198019802 r: 0.700288184438 f1: 0.747692307692

train lr0.0010000000475 decay: 0.0
Validating  acc: 0.740740740741 p: 0.759493670886 r: 0.740740740741 f1: 0.75
new best score
Testing  acc: 0.740634005764 p: 0.795665634675 r: 0.740634005764 f1: 0.767164179104

train lr0.0010000000475 decay: 0.0
Validating  acc: 0.716049382716 p: 0.781144781145 r: 0.716049382716 f1: 0.747181964573
Testing  acc: 0.71757925072 p: 0.803225806452 r: 0.71757925072 f1: 0.75799086758

train lr0.0010000000475 decay: 0.0
Validating  acc: 0.645061728395 p: 0.785714285714 r: 0.645061728395 f1: 0.708474576271
Testing  acc: 0.665706051873 p: 0.816254416961 r: 0.665706051873 f1: 0.733333333333

train lr0.0010000000475 decay: 0.0
Validating  acc: 0.685185185185 p: 0.795698924731 r: 0.685185185185 f1: 0.73631840796
Testing  acc: 0.691642651297 p: 0.816326530612 r: 0.691642651297 f1: 0.748829953198

train lr0.0010000000475 decay: 0.0
Validating  acc: 0.706790123457 p: 0.800699300699 r: 0.706790123457 f1: 0.750819672131
new best score
Testing  acc: 0.71469740634 p: 0.815789473684 r: 0.71469740634 f1: 0.761904761905

train lr0.0010000000475 decay: 0.0
Validating  acc: 0.743827160494 p: 0.777419354839 r: 0.743827160494 f1: 0.760252365931
new best score
Testing  acc: 0.755043227666 p: 0.811145510836 r: 0.755043227666 f1: 0.782089552239

train lr0.0010000000475 decay: 0.0
Validating  acc: 0.731481481481 p: 0.792642140468 r: 0.731481481481 f1: 0.760834670947
new best score
Testing  acc: 0.752161383285 p: 0.81308411215 r: 0.752161383285 f1: 0.781437125749

train lr0.0010000000475 decay: 0.0
Validating  acc: 0.679012345679 p: 0.797101449275 r: 0.679012345679 f1: 0.733333333333
Testing  acc: 0.703170028818 p: 0.827118644068 r: 0.703170028818 f1: 0.760124610592

train lr0.0010000000475 decay: 0.0
Validating  acc: 0.66049382716 p: 0.813688212928 r: 0.66049382716 f1: 0.729131175468
Testing  acc: 0.674351585014 p: 0.823943661972 r: 0.674351585014 f1: 0.741679873217

train lr0.0010000000475 decay: 0.0
Validating  acc: 0.685185185185 p: 0.798561151079 r: 0.685185185185 f1: 0.737541528239
Testing  acc: 0.71469740634 p: 0.826666666667 r: 0.71469740634 f1: 0.766615146832

train lr0.0010000000475 decay: 0.0
Validating  acc: 0.712962962963 p: 0.796551724138 r: 0.712962962963 f1: 0.752442996743
Testing  acc: 0.734870317003 p: 0.819935691318 r: 0.734870317003 f1: 0.775075987842

train lr0.0010000000475 decay: 0.0
Validating  acc: 0.716049382716 p: 0.794520547945 r: 0.716049382716 f1: 0.753246753247
Testing  acc: 0.734870317003 p: 0.817307692308 r: 0.734870317003 f1: 0.773899848255

train lr0.0010000000475 decay: 0.0
Validating  acc: 0.672839506173 p: 0.80442804428 r: 0.672839506173 f1: 0.732773109244
Testing  acc: 0.694524495677 p: 0.82252559727 r: 0.694524495677 f1: 0.753125

train lr0.0010000000475 decay: 0.0
Validating  acc: 0.682098765432 p: 0.797833935018 r: 0.682098765432 f1: 0.73544093178
Testing  acc: 0.694524495677 p: 0.82252559727 r: 0.694524495677 f1: 0.753125

