train lr0.0010000000474974513 decay: 0.0
Validating  acc: 0.7962962962962963 p: 0.821656050955414 r: 0.7962962962962963 f1: 0.8087774294670846
new best score
Testing  acc: 0.7867435158501441 p: 0.861198738170347 r: 0.7867435158501441 f1: 0.8222891566265061

train lr0.0010000000474974513 decay: 0.0
Validating  acc: 0.845679012345679 p: 0.8154761904761905 r: 0.845679012345679 f1: 0.8303030303030303
new best score
Testing  acc: 0.8386167146974063 p: 0.8558823529411764 r: 0.8386167146974063 f1: 0.8471615720524017

train lr0.0010000000474974513 decay: 0.0
Validating  acc: 0.8518518518518519 p: 0.8 r: 0.8518518518518519 f1: 0.8251121076233184
Testing  acc: 0.8587896253602305 p: 0.8277777777777777 r: 0.8587896253602305 f1: 0.842998585572843

train lr0.0010000000474974513 decay: 0.0
Validating  acc: 0.845679012345679 p: 0.8509316770186336 r: 0.845679012345679 f1: 0.8482972136222912
new best score
Testing  acc: 0.8472622478386167 p: 0.8546511627906976 r: 0.8472622478386167 f1: 0.8509406657018813

train lr0.0010000000474974513 decay: 0.0
Validating  acc: 0.8580246913580247 p: 0.8475609756097561 r: 0.8580246913580247 f1: 0.8527607361963191
new best score
Testing  acc: 0.8818443804034583 p: 0.8476454293628809 r: 0.8818443804034583 f1: 0.864406779661017

train lr0.0010000000474974513 decay: 0.0
Validating  acc: 0.8611111111111112 p: 0.871875 r: 0.8611111111111112 f1: 0.8664596273291925
new best score
Testing  acc: 0.861671469740634 p: 0.8641618497109826 r: 0.861671469740634 f1: 0.862914862914863

train lr0.0010000000474974513 decay: 0.0
Validating  acc: 0.8549382716049383 p: 0.8765822784810127 r: 0.8549382716049383 f1: 0.8656250000000001
Testing  acc: 0.861671469740634 p: 0.8742690058479532 r: 0.861671469740634 f1: 0.8679245283018868

train lr0.0010000000474974513 decay: 0.0
Validating  acc: 0.8580246913580247 p: 0.8742138364779874 r: 0.8580246913580247 f1: 0.8660436137071652
Testing  acc: 0.861671469740634 p: 0.861671469740634 r: 0.861671469740634 f1: 0.861671469740634

train lr0.0010000000474974513 decay: 0.0
Validating  acc: 0.8364197530864198 p: 0.8630573248407644 r: 0.8364197530864198 f1: 0.8495297805642634
Testing  acc: 0.8386167146974063 p: 0.8738738738738738 r: 0.8386167146974063 f1: 0.8558823529411764

train lr0.0010000000474974513 decay: 0.0
Validating  acc: 0.8703703703703703 p: 0.8597560975609756 r: 0.8703703703703703 f1: 0.8650306748466258
Testing  acc: 0.8530259365994236 p: 0.8629737609329446 r: 0.8530259365994236 f1: 0.8579710144927536

train lr0.0010000000474974513 decay: 0.0
Validating  acc: 0.845679012345679 p: 0.8782051282051282 r: 0.845679012345679 f1: 0.8616352201257861
Testing  acc: 0.8270893371757925 p: 0.8803680981595092 r: 0.8270893371757925 f1: 0.8528974739970282

train lr0.0010000000474974513 decay: 0.0
Validating  acc: 0.7746913580246914 p: 0.9261992619926199 r: 0.7746913580246914 f1: 0.8436974789915966
early stopping
