train lr0.0010000000475 decay: 0.0
Validating  acc: 0.0 p: 0 r: 0.0 f1: 0
Testing  acc: 0.0 p: 0 r: 0.0 f1: 0

train lr0.0010000000475 decay: 0.0
Validating  acc: 0.408934707904 p: 0.937007874016 r: 0.408934707904 f1: 0.569377990431
new best score
Testing  acc: 0.449404761905 p: 0.904191616766 r: 0.449404761905 f1: 0.600397614314

train lr0.0010000000475 decay: 0.0
Validating  acc: 0.621993127148 p: 0.841860465116 r: 0.621993127148 f1: 0.715415019763
new best score
Testing  acc: 0.681547619048 p: 0.823741007194 r: 0.681547619048 f1: 0.745928338762

train lr0.0010000000475 decay: 0.0
Validating  acc: 0.6735395189 p: 0.809917355372 r: 0.6735395189 f1: 0.735459662289
new best score
Testing  acc: 0.741071428571 p: 0.792993630573 r: 0.741071428571 f1: 0.766153846154

train lr0.0010000000475 decay: 0.0
Validating  acc: 0.683848797251 p: 0.822314049587 r: 0.683848797251 f1: 0.746716697936
new best score
Testing  acc: 0.761904761905 p: 0.8 r: 0.761904761905 f1: 0.780487804878

train lr0.0010000000475 decay: 0.0
Validating  acc: 0.752577319588 p: 0.744897959184 r: 0.752577319588 f1: 0.748717948718
new best score
Testing  acc: 0.830357142857 p: 0.728459530026 r: 0.830357142857 f1: 0.776077885953

train lr0.0010000000475 decay: 0.0
Validating  acc: 0.749140893471 p: 0.762237762238 r: 0.749140893471 f1: 0.755632582322
new best score
Testing  acc: 0.824404761905 p: 0.725130890052 r: 0.824404761905 f1: 0.771587743733

train lr0.0010000000475 decay: 0.0
Validating  acc: 0.707903780069 p: 0.8046875 r: 0.707903780069 f1: 0.753199268739
Testing  acc: 0.779761904762 p: 0.766081871345 r: 0.779761904762 f1: 0.772861356932

train lr0.0010000000475 decay: 0.0
Validating  acc: 0.714776632302 p: 0.781954887218 r: 0.714776632302 f1: 0.746858168761
Testing  acc: 0.809523809524 p: 0.737127371274 r: 0.809523809524 f1: 0.771631205674

train lr0.0010000000475 decay: 0.0
Validating  acc: 0.694158075601 p: 0.834710743802 r: 0.694158075601 f1: 0.757973733583
new best score
Testing  acc: 0.752976190476 p: 0.776073619632 r: 0.752976190476 f1: 0.764350453172

train lr0.0010000000475 decay: 0.0
Validating  acc: 0.725085910653 p: 0.787313432836 r: 0.725085910653 f1: 0.754919499106
Testing  acc: 0.806547619048 p: 0.750692520776 r: 0.806547619048 f1: 0.777618364419

train lr0.0010000000475 decay: 0.0
Validating  acc: 0.639175257732 p: 0.845454545455 r: 0.639175257732 f1: 0.727984344423
Testing  acc: 0.705357142857 p: 0.811643835616 r: 0.705357142857 f1: 0.754777070064

train lr0.0010000000475 decay: 0.0
Validating  acc: 0.649484536082 p: 0.84 r: 0.649484536082 f1: 0.732558139535
Testing  acc: 0.717261904762 p: 0.798013245033 r: 0.717261904762 f1: 0.755485893417

train lr0.0010000000475 decay: 0.0
Validating  acc: 0.659793814433 p: 0.838427947598 r: 0.659793814433 f1: 0.738461538462
Testing  acc: 0.752976190476 p: 0.778461538462 r: 0.752976190476 f1: 0.765506807867

train lr0.0010000000475 decay: 0.0
Validating  acc: 0.66323024055 p: 0.828326180258 r: 0.66323024055 f1: 0.736641221374
Testing  acc: 0.732142857143 p: 0.783439490446 r: 0.732142857143 f1: 0.756923076923

train lr0.0010000000475 decay: 0.0
Validating  acc: 0.649484536082 p: 0.836283185841 r: 0.649484536082 f1: 0.731141199226
Testing  acc: 0.729166666667 p: 0.795454545455 r: 0.729166666667 f1: 0.760869565217

train lr0.0010000000475 decay: 0.0
Validating  acc: 0.670103092784 p: 0.840517241379 r: 0.670103092784 f1: 0.74569789675
Testing  acc: 0.744047619048 p: 0.78125 r: 0.744047619048 f1: 0.762195121951

train lr0.0010000000475 decay: 0.0
Validating  acc: 0.652920962199 p: 0.829694323144 r: 0.652920962199 f1: 0.730769230769
early stopping
