train lr0.0010000000475 decay: 0.0
Validating  acc: 0.00687285223368 p: 0.666666666667 r: 0.00687285223368 f1: 0.0136054421769
new best score
Testing  acc: 0.0119047619048 p: 1.0 r: 0.0119047619048 f1: 0.0235294117647

train lr0.0010000000475 decay: 0.0
Validating  acc: 0.309278350515 p: 0.9375 r: 0.309278350515 f1: 0.46511627907
new best score
Testing  acc: 0.33630952381 p: 0.904 r: 0.33630952381 f1: 0.490238611714

train lr0.0010000000475 decay: 0.0
Validating  acc: 0.45704467354 p: 0.93006993007 r: 0.45704467354 f1: 0.612903225806
new best score
Testing  acc: 0.511904761905 p: 0.886597938144 r: 0.511904761905 f1: 0.649056603774

train lr0.0010000000475 decay: 0.0
Validating  acc: 0.518900343643 p: 0.920731707317 r: 0.518900343643 f1: 0.663736263736
new best score
Testing  acc: 0.58630952381 p: 0.883408071749 r: 0.58630952381 f1: 0.704830053667

train lr0.0010000000475 decay: 0.0
Validating  acc: 0.570446735395 p: 0.897297297297 r: 0.570446735395 f1: 0.697478991597
new best score
Testing  acc: 0.642857142857 p: 0.857142857143 r: 0.642857142857 f1: 0.734693877551

train lr0.0010000000475 decay: 0.0
Validating  acc: 0.59793814433 p: 0.874371859296 r: 0.59793814433 f1: 0.710204081633
new best score
Testing  acc: 0.684523809524 p: 0.848708487085 r: 0.684523809524 f1: 0.757825370675

train lr0.0010000000475 decay: 0.0
Validating  acc: 0.601374570447 p: 0.879396984925 r: 0.601374570447 f1: 0.714285714286
new best score
Testing  acc: 0.699404761905 p: 0.857664233577 r: 0.699404761905 f1: 0.770491803279

train lr0.0010000000475 decay: 0.0
Validating  acc: 0.642611683849 p: 0.873831775701 r: 0.642611683849 f1: 0.740594059406
new best score
Testing  acc: 0.761904761905 p: 0.833876221498 r: 0.761904761905 f1: 0.796267496112

train lr0.0010000000475 decay: 0.0
Validating  acc: 0.642611683849 p: 0.8779342723 r: 0.642611683849 f1: 0.742063492063
new best score
Testing  acc: 0.75 p: 0.84 r: 0.75 f1: 0.792452830189

train lr0.0010000000475 decay: 0.0
Validating  acc: 0.632302405498 p: 0.89756097561 r: 0.632302405498 f1: 0.741935483871
Testing  acc: 0.723214285714 p: 0.840830449827 r: 0.723214285714 f1: 0.7776

train lr0.0010000000475 decay: 0.0
Validating  acc: 0.670103092784 p: 0.886363636364 r: 0.670103092784 f1: 0.763209393346
new best score
Testing  acc: 0.776785714286 p: 0.810559006211 r: 0.776785714286 f1: 0.793313069909

train lr0.0010000000475 decay: 0.0
Validating  acc: 0.628865979381 p: 0.910447761194 r: 0.628865979381 f1: 0.743902439024
Testing  acc: 0.723214285714 p: 0.864768683274 r: 0.723214285714 f1: 0.787682333874

train lr0.0010000000475 decay: 0.0
Validating  acc: 0.683848797251 p: 0.884444444444 r: 0.683848797251 f1: 0.771317829457
new best score
Testing  acc: 0.782738095238 p: 0.814241486068 r: 0.782738095238 f1: 0.798179059181

train lr0.0010000000475 decay: 0.0
Validating  acc: 0.707903780069 p: 0.851239669421 r: 0.707903780069 f1: 0.772983114447
new best score
Testing  acc: 0.809523809524 p: 0.8 r: 0.809523809524 f1: 0.804733727811

train lr0.0010000000475 decay: 0.0
Validating  acc: 0.676975945017 p: 0.912037037037 r: 0.676975945017 f1: 0.777120315582
new best score
Testing  acc: 0.755952380952 p: 0.830065359477 r: 0.755952380952 f1: 0.791277258567

train lr0.0010000000475 decay: 0.0
Validating  acc: 0.652920962199 p: 0.904761904762 r: 0.652920962199 f1: 0.758483033932
Testing  acc: 0.729166666667 p: 0.847750865052 r: 0.729166666667 f1: 0.784

train lr0.0010000000475 decay: 0.0
Validating  acc: 0.680412371134 p: 0.891891891892 r: 0.680412371134 f1: 0.771929824561
Testing  acc: 0.794642857143 p: 0.836990595611 r: 0.794642857143 f1: 0.815267175573

train lr0.0010000000475 decay: 0.0
Validating  acc: 0.718213058419 p: 0.85306122449 r: 0.718213058419 f1: 0.779850746269
new best score
Testing  acc: 0.803571428571 p: 0.794117647059 r: 0.803571428571 f1: 0.798816568047

train lr0.0010000000475 decay: 0.0
Validating  acc: 0.721649484536 p: 0.836653386454 r: 0.721649484536 f1: 0.774907749077
Testing  acc: 0.815476190476 p: 0.794202898551 r: 0.815476190476 f1: 0.8046989721

train lr0.0010000000475 decay: 0.0
Validating  acc: 0.707903780069 p: 0.880341880342 r: 0.707903780069 f1: 0.784761904762
new best score
Testing  acc: 0.779761904762 p: 0.816199376947 r: 0.779761904762 f1: 0.797564687976

train lr0.0010000000475 decay: 0.0
Validating  acc: 0.690721649485 p: 0.877729257642 r: 0.690721649485 f1: 0.773076923077
Testing  acc: 0.758928571429 p: 0.806962025316 r: 0.758928571429 f1: 0.782208588957

train lr0.0010000000475 decay: 0.0
Validating  acc: 0.694158075601 p: 0.8669527897 r: 0.694158075601 f1: 0.770992366412
Testing  acc: 0.758928571429 p: 0.817307692308 r: 0.758928571429 f1: 0.787037037037

train lr0.0010000000475 decay: 0.0
Validating  acc: 0.697594501718 p: 0.871244635193 r: 0.697594501718 f1: 0.774809160305
Testing  acc: 0.77380952381 p: 0.8 r: 0.77380952381 f1: 0.786686838124

train lr0.0010000000475 decay: 0.0
Validating  acc: 0.687285223368 p: 0.881057268722 r: 0.687285223368 f1: 0.772200772201
Testing  acc: 0.755952380952 p: 0.838283828383 r: 0.755952380952 f1: 0.794992175274

train lr0.0010000000475 decay: 0.0
Validating  acc: 0.683848797251 p: 0.846808510638 r: 0.683848797251 f1: 0.756653992395
Testing  acc: 0.747023809524 p: 0.809677419355 r: 0.747023809524 f1: 0.777089783282

train lr0.0010000000475 decay: 0.0
Validating  acc: 0.742268041237 p: 0.8 r: 0.742268041237 f1: 0.770053475936
Testing  acc: 0.815476190476 p: 0.778409090909 r: 0.815476190476 f1: 0.796511627907

train lr0.0010000000475 decay: 0.0
Validating  acc: 0.725085910653 p: 0.811538461538 r: 0.725085910653 f1: 0.765880217786
Testing  acc: 0.782738095238 p: 0.792168674699 r: 0.782738095238 f1: 0.787425149701

train lr0.0010000000475 decay: 0.0
Validating  acc: 0.704467353952 p: 0.836734693878 r: 0.704467353952 f1: 0.764925373134
early stopping
